0.100000	-15.305770	-14.847516	-15.764024
0.120000	-14.071149	-13.692655	-14.449644
0.140000	-13.033462	-12.722849	-13.344075
0.160000	-12.139917	-11.888492	-12.391342
0.180000	-11.356463	-11.157586	-11.555340
0.200000	-10.659851	-10.508284	-10.811419
0.220000	-10.033498	-9.925003	-10.141993
0.240000	-9.465159	-9.396237	-9.534081
0.260000	-8.945535	-8.913249	-8.977822
0.280000	-8.467400	-8.469246	-8.465554
0.300000	-8.025022	-8.058844	-7.991200
0.320000	-7.613783	-7.677702	-7.549863
0.340000	-7.229905	-7.322272	-7.137537
0.360000	-6.870257	-6.989611	-6.750904
0.380000	-6.532220	-6.677256	-6.387184
0.400000	-6.213574	-6.383123	-6.044025
0.420000	-5.912426	-6.105433	-5.719420
0.440000	-5.627149	-5.842656	-5.411642
0.460000	-5.356330	-5.593465	-5.119194
0.480000	-5.098738	-5.356704	-4.840772
0.500000	-4.853293	-5.131357	-4.575229
0.520000	-4.619042	-4.916529	-4.321556
0.540000	-4.395141	-4.711426	-4.078855
0.560000	-4.180835	-4.515340	-3.846330
0.580000	-3.975451	-4.327638	-3.623265
0.600000	-3.778385	-4.147752	-3.409018
0.620000	-3.589091	-3.975169	-3.203013
0.640000	-3.407075	-3.809425	-3.004724
0.660000	-3.231888	-3.650099	-2.813678
0.680000	-3.063125	-3.496808	-2.629441
0.700000	-2.900411	-3.349203	-2.451619
0.720000	-2.743406	-3.206961	-2.279850
0.740000	-2.591797	-3.069791	-2.113803
0.760000	-2.445296	-2.937420	-1.953172
0.780000	-2.303639	-2.809601	-1.797676
0.800000	-2.166578	-2.686102	-1.647055
0.820000	-2.033889	-2.566709	-1.501069
0.840000	-1.905359	-2.451226	-1.359493
0.860000	-1.780794	-2.339467	-1.222120
0.880000	-1.660010	-2.231263	-1.088757
0.900000	-1.542838	-2.126452	-0.959224
0.920000	-1.429119	-2.024886	-0.833352
0.940000	-1.318704	-1.926425	-0.710984
0.960000	-1.211455	-1.830939	-0.591972
0.980000	-1.107241	-1.738304	-0.476178
1.000000	-1.005939	-1.648406	-0.363472
1.020000	-0.907434	-1.561136	-0.253731
1.040000	-0.811616	-1.476392	-0.146841
1.060000	-0.718385	-1.394078	-0.042692
1.080000	-0.627643	-1.314103	0.058817
1.100000	-0.539298	-1.236381	0.157784
1.120000	-0.453265	-1.160831	0.254301
1.140000	-0.369462	-1.087376	0.348453
1.160000	-0.287810	-1.015944	0.440323
1.180000	-0.208237	-0.946464	0.529990
1.200000	-0.130672	-0.878872	0.617527
1.220000	-0.055050	-0.813104	0.703005
1.240000	0.018694	-0.749102	0.786490
1.260000	0.090619	-0.686810	0.868047
1.280000	0.160782	-0.626172	0.947737
1.300000	0.229238	-0.567139	1.025616
1.320000	0.296040	-0.509661	1.101741
1.340000	0.361237	-0.453691	1.176164
1.360000	0.424876	-0.399184	1.248935
1.380000	0.487003	-0.346098	1.320103
1.400000	0.547661	-0.294392	1.389715
1.420000	0.606893	-0.244027	1.457813
1.440000	0.664738	-0.194965	1.524441
1.460000	0.721234	-0.147170	1.589639
1.480000	0.776419	-0.100608	1.653446
1.500000	0.830326	-0.055246	1.715899
1.520000	0.882991	-0.011052	1.777034
1.540000	0.934445	0.032005	1.836886
1.560000	0.984720	0.073953	1.895487
1.580000	1.033846	0.114822	1.952871
1.600000	1.081852	0.154639	2.009066
1.620000	1.128766	0.193428	2.064103
1.640000	1.174614	0.231217	2.118010
1.660000	1.219422	0.268028	2.170815
1.680000	1.263215	0.303886	2.222544
1.700000	1.306018	0.338813	2.273222
1.720000	1.347852	0.372831	2.322874
1.740000	1.388742	0.405960	2.371524
1.760000	1.428708	0.438221	2.419195
1.780000	1.467771	0.469634	2.465908
1.800000	1.505952	0.500218	2.511685
1.820000	1.543269	0.529991	2.556548
1.840000	1.579742	0.558970	2.600515
1.860000	1.615390	0.587173	2.643606
1.880000	1.650229	0.614617	2.685841
1.900000	1.684276	0.641317	2.727236
1.920000	1.717550	0.667289	2.767810
1.940000	1.750064	0.692548	2.807580
1.960000	1.781836	0.717110	2.846562
1.980000	1.812879	0.740987	2.884772
2.000000	1.843210	0.764194	2.922226
2.020000	1.872841	0.786744	2.958938
2.040000	1.901787	0.808649	2.994924
2.060000	1.930061	0.829924	3.030197
2.080000	1.957676	0.850579	3.064772
2.100000	1.984644	0.870627	3.098661
2.120000	2.010979	0.890079	3.131878
2.140000	2.036691	0.908947	3.164435
2.160000	2.061793	0.927240	3.196345
2.180000	2.086295	0.944971	3.227619
2.200000	2.110209	0.962148	3.258269
2.220000	2.133545	0.978783	3.288307
2.240000	2.156314	0.994884	3.317743
2.260000	2.178525	1.010462	3.346588
2.280000	2.200189	1.025525	3.374853
2.300000	2.221315	1.040083	3.402547
2.320000	2.241912	1.054144	3.429681
2.340000	2.261990	1.067717	3.456264
2.360000	2.281557	1.080809	3.482305
2.380000	2.300623	1.093431	3.507815
2.400000	2.319194	1.105588	3.532800
2.420000	2.337280	1.117289	3.557271
2.440000	2.354888	1.128541	3.581236
2.460000	2.372027	1.139352	3.604702
2.480000	2.388704	1.149729	3.627679
2.500000	2.404926	1.159678	3.650173
2.520000	2.420700	1.169207	3.672193
2.540000	2.436035	1.178323	3.693746
2.560000	2.450935	1.187031	3.714840
2.580000	2.465409	1.195338	3.735481
2.600000	2.479463	1.203250	3.755677
2.620000	2.493104	1.210774	3.775434
2.640000	2.506337	1.217914	3.794759
2.660000	2.519169	1.224678	3.813659
2.680000	2.531605	1.231070	3.832140
2.700000	2.543652	1.237097	3.850208
2.720000	2.555316	1.242763	3.867869
2.740000	2.566602	1.248074	3.885129
2.760000	2.577515	1.253035	3.901995
2.780000	2.588061	1.257651	3.918471
2.800000	2.598245	1.261927	3.934564
2.820000	2.608073	1.265868	3.950278
2.840000	2.617549	1.269478	3.965620
2.860000	2.626678	1.272762	3.980594
2.880000	2.635465	1.275726	3.995205
2.900000	2.643916	1.278372	4.009459
2.920000	2.652033	1.280706	4.023361
2.940000	2.659823	1.282732	4.036914
2.960000	2.667290	1.284454	4.050125
2.980000	2.674437	1.285876	4.062997
3.000000	2.681269	1.287002	4.075536
3.020000	2.687791	1.287836	4.087745
3.040000	2.694005	1.288382	4.099628
3.060000	2.699918	1.288644	4.111192
3.080000	2.705532	1.288625	4.122438
3.100000	2.710850	1.288329	4.133372
3.120000	2.715878	1.287760	4.143997
3.140000	2.720619	1.286921	4.154318
3.160000	2.725076	1.285815	4.164338
3.180000	2.729253	1.284446	4.174061
3.200000	2.733154	1.282817	4.183491
3.220000	2.736781	1.280932	4.192631
3.240000	2.740139	1.278793	4.201485
3.260000	2.743230	1.276404	4.210057
3.280000	2.746059	1.273767	4.218350
3.300000	2.748627	1.270887	4.226368
3.320000	2.750939	1.267765	4.234113
3.340000	2.752997	1.264404	4.241589
3.360000	2.754804	1.260809	4.248799
3.380000	2.756363	1.256980	4.255747
3.400000	2.757678	1.252921	4.262435
3.420000	2.758751	1.248635	4.268866
3.440000	2.759585	1.244125	4.275045
3.460000	2.760182	1.239392	4.280972
3.480000	2.760546	1.234440	4.286652
3.500000	2.760679	1.229271	4.292087
3.520000	2.760584	1.223887	4.297280
3.540000	2.760263	1.218292	4.302234
3.560000	2.759719	1.212486	4.306951
3.580000	2.758954	1.206474	4.311434
3.600000	2.757971	1.200256	4.315686
3.620000	2.756772	1.193836	4.319709
3.640000	2.755360	1.187215	4.323506
3.660000	2.753737	1.180395	4.327079
3.680000	2.751905	1.173380	4.330431
3.700000	2.749867	1.166170	4.333564
3.720000	2.747624	1.158769	4.336480
3.740000	2.745180	1.151178	4.339182
3.760000	2.742535	1.143398	4.341672
3.780000	2.739693	1.135433	4.343952
3.800000	2.736655	1.127285	4.346025
3.820000	2.733423	1.118954	4.347892
3.840000	2.730000	1.110443	4.349556
3.860000	2.726387	1.101754	4.351020
3.880000	2.722586	1.092888	4.352284
3.900000	2.718599	1.083848	4.353351
3.920000	2.714429	1.074635	4.354223
3.940000	2.710077	1.065251	4.354902
3.960000	2.705545	1.055698	4.355391
3.980000	2.700834	1.045978	4.355690
4.000000	2.695947	1.036091	4.355802
4.020000	2.690885	1.026040	4.355729
4.040000	2.685650	1.015827	4.355472
4.060000	2.680243	1.005453	4.355034
4.080000	2.674667	0.994919	4.354416
4.100000	2.668923	0.984227	4.353619
4.120000	2.663013	0.973379	4.352646
4.140000	2.656938	0.962377	4.351499
4.160000	2.650700	0.951221	4.350179
4.180000	2.644300	0.939913	4.348687
4.200000	2.637740	0.928454	4.347026
4.220000	2.631022	0.916847	4.345196
4.240000	2.624146	0.905092	4.343200
4.260000	2.617115	0.893192	4.341039
4.280000	2.609930	0.881146	4.338715
4.300000	2.602593	0.868957	4.336229
4.320000	2.595104	0.856625	4.333582
4.340000	2.587465	0.844153	4.330777
4.360000	2.579678	0.831542	4.327814
4.380000	2.571744	0.818792	4.324695
4.400000	2.563664	0.805905	4.321422
4.420000	2.555439	0.792883	4.317995
4.440000	2.547071	0.779726	4.314417
4.460000	2.538562	0.766435	4.310689
4.480000	2.529912	0.753013	4.306811
4.500000	2.521123	0.739460	4.302786
4.520000	2.512195	0.725777	4.298614
4.540000	2.503131	0.711965	4.294297
4.560000	2.493931	0.698026	4.289836
4.580000	2.484596	0.683960	4.285233
4.600000	2.475129	0.669770	4.280488
4.620000	2.465529	0.655455	4.275603
4.640000	2.455798	0.641016	4.270579
4.660000	2.445937	0.626456	4.265418
4.680000	2.435947	0.611775	4.260120
4.700000	2.425830	0.596974	4.254686
4.720000	2.415586	0.582054	4.249119
4.740000	2.405217	0.567016	4.243418
4.760000	2.394723	0.551861	4.237585
4.780000	2.384106	0.536590	4.231622
4.800000	2.373366	0.521204	4.225529
4.820000	2.362505	0.505704	4.219307
4.840000	2.351524	0.490091	4.212957
4.860000	2.340423	0.474366	4.206481
4.880000	2.329204	0.458530	4.199879
4.900000	2.317868	0.442583	4.193153
4.920000	2.306415	0.426526	4.186303
4.940000	2.294846	0.410362	4.179331
4.960000	2.283163	0.394089	4.172237
4.980000	2.271367	0.377710	4.165023
5.000000	2.259457	0.361225	4.157689
5.020000	2.247436	0.344634	4.150237
5.040000	2.235303	0.327940	4.142667
5.060000	2.223061	0.311142	4.134980
5.080000	2.210709	0.294241	4.127178
5.100000	2.198249	0.277238	4.119260
5.120000	2.185682	0.260135	4.111229
5.140000	2.173008	0.242931	4.103085
5.160000	2.160228	0.225628	4.094828
5.180000	2.147343	0.208226	4.086460
5.200000	2.134354	0.190726	4.077981
5.220000	2.121261	0.173129	4.069393
5.240000	2.108066	0.155436	4.060696
5.260000	2.094769	0.137646	4.051891
5.280000	2.081370	0.119762	4.042979
5.300000	2.067872	0.101784	4.033960
5.320000	2.054274	0.083712	4.024836
5.340000	2.040577	0.065547	4.015607
5.360000	2.026782	0.047290	4.006274
5.380000	2.012890	0.028942	3.996838
5.400000	1.998901	0.010503	3.987300
5.420000	1.984817	-0.008026	3.977660
5.440000	1.970637	-0.026645	3.967919
5.460000	1.956362	-0.045353	3.958077
5.480000	1.941994	-0.064148	3.948137
5.500000	1.927533	-0.083031	3.938097
5.520000	1.912979	-0.102001	3.927960
5.540000	1.898334	-0.121058	3.917725
5.560000	1.883597	-0.140200	3.907394
5.580000	1.868770	-0.159426	3.896966
5.600000	1.853853	-0.178738	3.886444
5.620000	1.838847	-0.198133	3.875827
5.640000	1.823752	-0.217611	3.865116
5.660000	1.808570	-0.237172	3.854312
5.680000	1.793300	-0.256815	3.843415
5.700000	1.777944	-0.276539	3.832426
5.720000	1.762501	-0.296344	3.821347
5.740000	1.746973	-0.316230	3.810176
5.760000	1.731360	-0.336195	3.798916
5.780000	1.715663	-0.356239	3.787566
5.800000	1.699882	-0.376362	3.776127
5.820000	1.684018	-0.396564	3.764600
5.840000	1.668072	-0.416842	3.752986
5.860000	1.652043	-0.437198	3.741285
5.880000	1.635934	-0.457630	3.729498
5.900000	1.619743	-0.478139	3.717624
5.920000	1.603472	-0.498723	3.705666
5.940000	1.587121	-0.519381	3.693623
5.960000	1.570691	-0.540115	3.681496
5.980000	1.554182	-0.560922	3.669285
6.000000	1.537595	-0.581803	3.656992
6.020000	1.520930	-0.602756	3.644616
6.040000	1.504188	-0.623783	3.632158
6.060000	1.487369	-0.644881	3.619619
6.080000	1.470475	-0.666051	3.607000
6.100000	1.453504	-0.687291	3.594300
6.120000	1.436459	-0.708603	3.581520
6.140000	1.419339	-0.729985	3.568662
6.160000	1.402144	-0.751436	3.555724
6.180000	1.384876	-0.772956	3.542709
6.200000	1.367535	-0.794546	3.529616
6.220000	1.350121	-0.816204	3.516445
6.240000	1.332635	-0.837929	3.503199
6.260000	1.315077	-0.859722	3.489876
6.280000	1.297447	-0.881583	3.476477
6.300000	1.279747	-0.903509	3.463003
6.320000	1.261976	-0.925502	3.449455
6.340000	1.244135	-0.947561	3.435832
6.360000	1.226225	-0.969685	3.422135
6.380000	1.208245	-0.991875	3.408365
6.400000	1.190197	-1.014128	3.394523
6.420000	1.172081	-1.036446	3.380608
6.440000	1.153896	-1.058828	3.366621
6.460000	1.135645	-1.081273	3.352562
6.480000	1.117326	-1.103781	3.338432
6.500000	1.098941	-1.126351	3.324232
6.520000	1.080489	-1.148984	3.309962
6.540000	1.061972	-1.171678	3.295622
6.560000	1.043389	-1.194434	3.281212
6.580000	1.024741	-1.217251	3.266734
6.600000	1.006029	-1.240129	3.252187
6.620000	0.987253	-1.263067	3.237573
6.640000	0.968413	-1.286065	3.222890
6.660000	0.949509	-1.309122	3.208140
6.680000	0.930542	-1.332239	3.193324
6.700000	0.911513	-1.355415	3.178441
6.720000	0.892421	-1.378649	3.163492
6.740000	0.873268	-1.401942	3.148477
6.760000	0.854053	-1.425292	3.133397
6.780000	0.834776	-1.448700	3.118252
6.800000	0.815439	-1.472164	3.103043
6.820000	0.796041	-1.495686	3.087769
6.840000	0.776584	-1.519264	3.072432
6.860000	0.757066	-1.542899	3.057031
6.880000	0.737489	-1.566589	3.041567
6.900000	0.717853	-1.590335	3.026041
6.920000	0.698158	-1.614136	3.010453
6.940000	0.678405	-1.637992	2.994802
6.960000	0.658594	-1.661902	2.979090
6.980000	0.638725	-1.685866	2.963317
7.000000	0.618799	-1.709885	2.947483
7.020000	0.598816	-1.733957	2.931588
7.040000	0.578775	-1.758083	2.915634
7.060000	0.558679	-1.782261	2.899619
7.080000	0.538526	-1.806492	2.883545
7.100000	0.518318	-1.830776	2.867412
7.120000	0.498054	-1.855112	2.851220
7.140000	0.477735	-1.879499	2.834969
7.160000	0.457361	-1.903939	2.818660
7.180000	0.436932	-1.928429	2.802294
7.200000	0.416450	-1.952970	2.785870
7.220000	0.395913	-1.977562	2.769389
7.240000	0.375323	-2.002205	2.752851
7.260000	0.354679	-2.026897	2.736256
7.280000	0.333983	-2.051640	2.719605
7.300000	0.313233	-2.076432	2.702898
7.320000	0.292431	-2.101273	2.686136
7.340000	0.271577	-2.126163	2.669318
7.360000	0.250671	-2.151103	2.652445
7.380000	0.229714	-2.176090	2.635517
7.400000	0.208705	-2.201126	2.618535
7.420000	0.187645	-2.226210	2.601499
7.440000	0.166534	-2.251342	2.584409
7.460000	0.145372	-2.276521	2.567265
7.480000	0.124161	-2.301747	2.550069
7.500000	0.102899	-2.327020	2.532819
7.520000	0.081588	-2.352340	2.515516
7.540000	0.060227	-2.377707	2.498161
7.560000	0.038817	-2.403119	2.480754
7.580000	0.017359	-2.428578	2.463295
7.600000	-0.004149	-2.454082	2.445784
7.620000	-0.025705	-2.479632	2.428222
7.640000	-0.047309	-2.505227	2.410609
7.660000	-0.068961	-2.530867	2.392945
7.680000	-0.090660	-2.556552	2.375231
7.700000	-0.112408	-2.582282	2.357467
7.720000	-0.134202	-2.608055	2.339652
7.740000	-0.156043	-2.633873	2.321787
7.760000	-0.177931	-2.659735	2.303874
7.780000	-0.199865	-2.685640	2.285911
7.800000	-0.221845	-2.711589	2.267898
7.820000	-0.243872	-2.737581	2.249838
7.840000	-0.265944	-2.763616	2.231728
7.860000	-0.288061	-2.789694	2.213571
7.880000	-0.310224	-2.815814	2.195365
7.900000	-0.332432	-2.841976	2.177112
7.920000	-0.354685	-2.868181	2.158811
7.940000	-0.376982	-2.894427	2.140463
7.960000	-0.399324	-2.920716	2.122068
7.980000	-0.421710	-2.947045	2.103626
8.000000	-0.444139	-2.973416	2.085138
8.020000	-0.466613	-2.999828	2.066603
8.040000	-0.489129	-3.026281	2.048022
8.060000	-0.511690	-3.052774	2.029395
8.080000	-0.534293	-3.079308	2.010723
8.100000	-0.556939	-3.105882	1.992005
8.120000	-0.579627	-3.132497	1.973242
8.140000	-0.602358	-3.159151	1.954434
8.160000	-0.625132	-3.185844	1.935581
8.180000	-0.647947	-3.212578	1.916684
8.200000	-0.670804	-3.239350	1.897743
8.220000	-0.693702	-3.266162	1.878757
8.240000	-0.716642	-3.293012	1.859727
8.260000	-0.739623	-3.319901	1.840654
8.280000	-0.762646	-3.346829	1.821538
8.300000	-0.785709	-3.373795	1.802378
8.320000	-0.808812	-3.400799	1.783175
8.340000	-0.831956	-3.427841	1.763929
8.360000	-0.855140	-3.454921	1.744641
8.380000	-0.878364	-3.482038	1.725310
8.400000	-0.901628	-3.509193	1.705937
8.420000	-0.924932	-3.536385	1.686522
8.440000	-0.948275	-3.563614	1.667065
8.460000	-0.971657	-3.590880	1.647567
8.480000	-0.995078	-3.618183	1.628027
8.500000	-1.018539	-3.645523	1.608445
8.520000	-1.042037	-3.672898	1.588823
8.540000	-1.065575	-3.700310	1.569160
8.560000	-1.089151	-3.727758	1.549457
8.580000	-1.112765	-3.755242	1.529712
8.600000	-1.136417	-3.782761	1.509928
8.620000	-1.160106	-3.810316	1.490103
8.640000	-1.183834	-3.837906	1.470239
8.660000	-1.207599	-3.865532	1.450335
8.680000	-1.231401	-3.893193	1.430391
8.700000	-1.255240	-3.920888	1.410408
8.720000	-1.279116	-3.948618	1.390386
8.740000	-1.303029	-3.976383	1.370325
8.760000	-1.326979	-4.004182	1.350225
8.780000	-1.350965	-4.032015	1.330086
8.800000	-1.374987	-4.059883	1.309909
8.820000	-1.399045	-4.087784	1.289694
8.840000	-1.423140	-4.115719	1.269440
8.860000	-1.447270	-4.143688	1.249149
8.880000	-1.471435	-4.171690	1.228820
8.900000	-1.495637	-4.199726	1.208453
8.920000	-1.519873	-4.227795	1.188049
8.940000	-1.544145	-4.255897	1.167607
8.960000	-1.568451	-4.284031	1.147129
8.980000	-1.592793	-4.312199	1.126613
9.000000	-1.617169	-4.340399	1.106061
9.020000	-1.641580	-4.368631	1.085472
9.040000	-1.666025	-4.396896	1.064846
9.060000	-1.690504	-4.425193	1.044185
9.080000	-1.715017	-4.453521	1.023487
9.100000	-1.739564	-4.481882	1.002753
9.120000	-1.764145	-4.510275	0.981984
9.140000	-1.788760	-4.538699	0.961179
9.160000	-1.813408	-4.567154	0.940338
9.180000	-1.838089	-4.595641	0.919462
9.200000	-1.862804	-4.624159	0.898551
9.220000	-1.887552	-4.652708	0.877605
9.240000	-1.912332	-4.681288	0.856624
9.260000	-1.937145	-4.709899	0.835608
9.280000	-1.961991	-4.738540	0.814557
9.300000	-1.986870	-4.767212	0.793473
9.320000	-2.011780	-4.795914	0.772354
9.340000	-2.036723	-4.824647	0.751200
9.360000	-2.061698	-4.853409	0.730013
9.380000	-2.086705	-4.882202	0.708792
9.400000	-2.111744	-4.911025	0.687537
9.420000	-2.136814	-4.939877	0.666249
9.440000	-2.161916	-4.968759	0.644927
9.460000	-2.187049	-4.997670	0.623572
9.480000	-2.212213	-5.026611	0.602184
9.500000	-2.237409	-5.055581	0.580763
9.520000	-2.262635	-5.084580	0.559309
9.540000	-2.287893	-5.113608	0.537822
9.560000	-2.313181	-5.142665	0.516303
9.580000	-2.338499	-5.171750	0.494752
9.600000	-2.363849	-5.200865	0.473168
9.620000	-2.389228	-5.230007	0.451551
9.640000	-2.414638	-5.259179	0.429903
9.660000	-2.440078	-5.288378	0.408223
9.680000	-2.465547	-5.317606	0.386511
9.700000	-2.491047	-5.346861	0.364768
9.720000	-2.516576	-5.376145	0.342993
9.740000	-2.542135	-5.405457	0.321186
9.760000	-2.567724	-5.434796	0.299348
9.780000	-2.593341	-5.464162	0.277480
9.800000	-2.618988	-5.493557	0.255580
9.820000	-2.644664	-5.522978	0.233649
9.840000	-2.670370	-5.552427	0.211688
9.860000	-2.696104	-5.581903	0.189696
9.880000	-2.721866	-5.611406	0.167673
9.900000	-2.747658	-5.640936	0.145620
