0.100000	0.184161	-1.005355	1.373678
0.120000	0.176088	-1.034296	1.386472
0.140000	0.168744	-1.062617	1.400105
0.160000	0.162129	-1.090318	1.414576
0.180000	0.156243	-1.117399	1.429885
0.200000	0.151086	-1.143860	1.446032
0.220000	0.146658	-1.169701	1.463017
0.240000	0.142959	-1.194922	1.480841
0.260000	0.139990	-1.219523	1.499503
0.280000	0.137749	-1.243504	1.519003
0.300000	0.136238	-1.266865	1.539341
0.320000	0.135456	-1.289606	1.560517
0.340000	0.135403	-1.311727	1.582532
0.360000	0.136079	-1.333227	1.605384
0.380000	0.137484	-1.354108	1.629075
0.400000	0.139618	-1.374369	1.653604
0.420000	0.142481	-1.394009	1.678971
0.440000	0.146074	-1.413030	1.705177
0.460000	0.150395	-1.431430	1.732220
0.480000	0.155446	-1.449211	1.760102
0.500000	0.161226	-1.466371	1.788822
0.520000	0.167734	-1.482911	1.818380
0.540000	0.174972	-1.498832	1.848777
0.560000	0.182940	-1.514132	1.880011
0.580000	0.191636	-1.528812	1.912084
0.600000	0.201061	-1.542873	1.944995
0.620000	0.211215	-1.556313	1.978744
0.640000	0.222099	-1.569133	2.013331
0.660000	0.233712	-1.581333	2.048756
0.680000	0.246053	-1.592913	2.085020
0.700000	0.259124	-1.603873	2.122122
0.720000	0.272924	-1.614213	2.160062
0.740000	0.287453	-1.623933	2.198840
0.760000	0.302712	-1.633033	2.238456
0.780000	0.318699	-1.641513	2.278911
0.800000	0.335415	-1.649373	2.320203
0.820000	0.352861	-1.656612	2.362334
0.840000	0.371036	-1.663232	2.405303
0.860000	0.389939	-1.669232	2.449111
0.880000	0.409572	-1.674612	2.493756
0.900000	0.429934	-1.679371	2.539240
0.920000	0.451025	-1.683511	2.585561
0.940000	0.472846	-1.687030	2.632721
0.960000	0.495395	-1.689930	2.680719
0.980000	0.518673	-1.692209	2.729556
1.000000	0.542681	-1.693869	2.779230
1.020000	0.567417	-1.694908	2.829743
1.040000	0.592883	-1.695327	2.881094
1.060000	0.619078	-1.695127	2.933283
1.080000	0.646002	-1.694306	2.986310
1.100000	0.673655	-1.692865	3.040176
1.120000	0.702037	-1.690804	3.094879
1.140000	0.731149	-1.688124	3.150421
1.160000	0.760989	-1.684823	3.206801
1.180000	0.791559	-1.680902	3.264019
1.200000	0.822857	-1.676361	3.322075
1.220000	0.854885	-1.671200	3.380970
1.240000	0.887642	-1.665419	3.440703
1.260000	0.921128	-1.659018	3.501274
1.280000	0.955343	-1.651996	3.562683
1.300000	0.990287	-1.644355	3.624930
1.320000	1.025961	-1.636094	3.688015
1.340000	1.062363	-1.627213	3.751939
1.360000	1.099495	-1.617711	3.816701
1.380000	1.137355	-1.607590	3.882301
1.400000	1.175945	-1.596849	3.948739
1.420000	1.215264	-1.585487	4.016015
1.440000	1.255312	-1.573506	4.084130
1.460000	1.296089	-1.560904	4.153082
1.480000	1.337595	-1.547683	4.222873
1.500000	1.379831	-1.533841	4.293502
1.520000	1.422795	-1.519380	4.364970
1.540000	1.466489	-1.504298	4.437275
1.560000	1.510911	-1.488596	4.510419
1.580000	1.556063	-1.472275	4.584400
1.600000	1.601944	-1.455333	4.659220
1.620000	1.648554	-1.437771	4.734879
1.640000	1.695893	-1.419589	4.811375
1.660000	1.743961	-1.400787	4.888709
1.680000	1.792758	-1.381365	4.966882
1.700000	1.842285	-1.361323	5.045893
1.720000	1.892540	-1.340661	5.125742
1.740000	1.943525	-1.319379	5.206429
1.760000	1.995239	-1.297477	5.287955
1.780000	2.047682	-1.274955	5.370319
1.800000	2.100854	-1.251813	5.453520
1.820000	2.154755	-1.228051	5.537560
1.840000	2.209385	-1.203668	5.622438
1.860000	2.264744	-1.178666	5.708155
1.880000	2.320833	-1.153044	5.794709
1.900000	2.377650	-1.126801	5.882102
1.920000	2.435197	-1.099939	5.970333
1.940000	2.493473	-1.072456	6.059402
1.960000	2.552478	-1.044354	6.149309
1.980000	2.612212	-1.015631	6.240055
2.000000	2.672675	-0.986289	6.331638
2.020000	2.733867	-0.956326	6.424060
2.040000	2.795788	-0.925743	6.517320
2.060000	2.858439	-0.894541	6.611418
2.080000	2.921818	-0.862718	6.706355
2.100000	2.985927	-0.830275	6.802129
2.120000	3.050765	-0.797212	6.898742
2.140000	3.116332	-0.763530	6.996193
2.160000	3.182628	-0.729227	7.094482
2.180000	3.249653	-0.694304	7.193609
2.200000	3.317407	-0.658761	7.293575
2.220000	3.385890	-0.622598	7.394378
2.240000	3.455103	-0.585815	7.496020
2.260000	3.525044	-0.548412	7.598500
2.280000	3.595715	-0.510388	7.701818
2.300000	3.667115	-0.471745	7.805975
2.320000	3.739244	-0.432482	7.910969
2.340000	3.812102	-0.392599	8.016802
2.360000	3.885689	-0.352095	8.123473
2.380000	3.960005	-0.310972	8.230982
2.400000	4.035050	-0.269229	8.339329
2.420000	4.110825	-0.226865	8.448515
2.440000	4.187328	-0.183882	8.558538
2.460000	4.264561	-0.140278	8.669400
2.480000	4.342523	-0.096055	8.781100
2.500000	4.421214	-0.051211	8.893639
2.520000	4.500634	-0.005748	9.007015
2.540000	4.580783	0.040336	9.121229
2.560000	4.661661	0.087040	9.236282
2.580000	4.743268	0.134364	9.352173
2.600000	4.825605	0.182307	9.468902
2.620000	4.908670	0.230871	9.586469
2.640000	4.992465	0.280055	9.704875
2.660000	5.076989	0.329859	9.824119
2.680000	5.162242	0.380283	9.944200
2.700000	5.248224	0.431327	10.065120
2.720000	5.334935	0.482991	10.186879
2.740000	5.422375	0.535275	10.309475
2.760000	5.510544	0.588179	10.432910
2.780000	5.599443	0.641703	10.557182
2.800000	5.689070	0.695847	10.682293
2.820000	5.779427	0.750612	10.808242
2.840000	5.870513	0.805996	10.935030
2.860000	5.962328	0.862000	11.062655
2.880000	6.054872	0.918624	11.191119
2.900000	6.148145	0.975869	11.320421
2.920000	6.242147	1.033733	11.450561
2.940000	6.336878	1.092218	11.581539
2.960000	6.432339	1.151322	11.713355
2.980000	6.528528	1.211047	11.846010
3.000000	6.625447	1.271391	11.979503
3.020000	6.723095	1.332356	12.113834
3.040000	6.821472	1.393941	12.249003
3.060000	6.920578	1.456145	12.385010
3.080000	7.020413	1.518970	12.521855
3.100000	7.120977	1.582415	12.659539
3.120000	7.222270	1.646480	12.798061
3.140000	7.324293	1.711165	12.937421
3.160000	7.427044	1.776470	13.077619
3.180000	7.530525	1.842394	13.218656
3.200000	7.634735	1.908939	13.360530
3.220000	7.739674	1.976104	13.503243
3.240000	7.845342	2.043890	13.646794
3.260000	7.951739	2.112295	13.791183
3.280000	8.058865	2.181320	13.936410
3.300000	8.166720	2.250965	14.082476
3.320000	8.275305	2.321230	14.229379
3.340000	8.384618	2.392115	14.377121
3.360000	8.494661	2.463621	14.525701
3.380000	8.605433	2.535746	14.675120
3.400000	8.716934	2.608492	14.825376
3.420000	8.829164	2.681857	14.976470
3.440000	8.942123	2.755842	15.128403
3.460000	9.055811	2.830448	15.281174
3.480000	9.170228	2.905673	15.434783
3.500000	9.285375	2.981519	15.589231
3.520000	9.401250	3.057985	15.744516
3.540000	9.517855	3.135070	15.900640
3.560000	9.635189	3.212776	16.057602
3.580000	9.753252	3.291102	16.215402
3.600000	9.872044	3.370048	16.374040
3.620000	9.991565	3.449613	16.533516
3.640000	10.111815	3.529799	16.693831
3.660000	10.232794	3.610605	16.854984
3.680000	10.354503	3.692031	17.016975
3.700000	10.476940	3.774077	17.179804
3.720000	10.600107	3.856743	17.343471
3.740000	10.724003	3.940029	17.507977
3.760000	10.848628	4.023935	17.673320
3.780000	10.973982	4.108461	17.839502
3.800000	11.100065	4.193608	18.006522
3.820000	11.226877	4.279374	18.174380
3.840000	11.354418	4.365760	18.343077
3.860000	11.482689	4.452766	18.512611
3.880000	11.611689	4.540393	18.682984
3.900000	11.741417	4.628639	18.854195
3.920000	11.871875	4.717506	19.026244
3.940000	12.003062	4.806992	19.199132
3.960000	12.134978	4.897099	19.372857
3.980000	12.267623	4.987825	19.547421
4.000000	12.400997	5.079172	19.722823
4.020000	12.535101	5.171138	19.899063
4.040000	12.669933	5.263725	20.076141
4.060000	12.805495	5.356932	20.254057
4.080000	12.941785	5.450758	20.432812
4.100000	13.078805	5.545205	20.612405
4.120000	13.216554	5.640272	20.792836
4.140000	13.355032	5.735959	20.974105
4.160000	13.494239	5.832266	21.156212
4.180000	13.634175	5.929193	21.339158
4.200000	13.774841	6.026740	21.522941
4.220000	13.916235	6.124907	21.707563
4.240000	14.058359	6.223694	21.893023
4.260000	14.201211	6.323101	22.079322
4.280000	14.344793	6.423128	22.266458
4.300000	14.489104	6.523775	22.454433
4.320000	14.634144	6.625043	22.643245
4.340000	14.779913	6.726930	22.832896
4.360000	14.926411	6.829437	23.023386
4.380000	15.073639	6.932565	23.214713
4.400000	15.221595	7.036312	23.406878
4.420000	15.370281	7.140679	23.599882
4.440000	15.519695	7.245667	23.793724
4.460000	15.669839	7.351274	23.988404
4.480000	15.820712	7.457502	24.183922
4.500000	15.972314	7.564349	24.380279
4.520000	16.124645	7.671817	24.577473
4.540000	16.277705	7.779905	24.775506
4.560000	16.431495	7.888613	24.974377
4.580000	16.586013	7.997940	25.174086
4.600000	16.741261	8.107888	25.374634
4.620000	16.897238	8.218456	25.576019
4.640000	17.053943	8.329644	25.778243
4.660000	17.211378	8.441452	25.981305
4.680000	17.369542	8.553880	26.185205
4.700000	17.528435	8.666928	26.389943
4.720000	17.688058	8.780596	26.595520
4.740000	17.848409	8.894884	26.801934
4.760000	18.009489	9.009792	27.009187
4.780000	18.171299	9.125320	27.217278
4.800000	18.333838	9.241468	27.426207
4.820000	18.497105	9.358236	27.635974
4.840000	18.661102	9.475625	27.846580
4.860000	18.825828	9.593633	28.058024
4.880000	18.991283	9.712261	28.270306
4.900000	19.157468	9.831510	28.483426
4.920000	19.324381	9.951378	28.697384
4.940000	19.492024	10.071867	28.912180
4.960000	19.660395	10.192975	29.127815
4.980000	19.829496	10.314704	29.344288
5.000000	19.999326	10.437052	29.561599
5.020000	20.169884	10.560021	29.779748
5.040000	20.341172	10.683610	29.998735
5.060000	20.513190	10.807818	30.218561
5.080000	20.685936	10.932647	30.439225
5.100000	20.859411	11.058096	30.660727
5.120000	21.033616	11.184165	30.883067
5.140000	21.208549	11.310854	31.106245
5.160000	21.384212	11.438162	31.330261
5.180000	21.560604	11.566091	31.555116
5.200000	21.737725	11.694640	31.780809
5.220000	21.915575	11.823809	32.007340
5.240000	22.094154	11.953599	32.234709
5.260000	22.273462	12.084008	32.462916
5.280000	22.453499	12.215037	32.691962
5.300000	22.634266	12.346686	32.921846
5.320000	22.815761	12.478955	33.152567
5.340000	22.997986	12.611845	33.384128
5.360000	23.180940	12.745354	33.616526
5.380000	23.364623	12.879483	33.849762
5.400000	23.549035	13.014233	34.083837
5.420000	23.734176	13.149602	34.318750
5.440000	23.920046	13.285591	34.554501
5.460000	24.106645	13.422201	34.791090
5.480000	24.293974	13.559431	35.028517
5.500000	24.482032	13.697280	35.266783
5.520000	24.670818	13.835750	35.505887
5.540000	24.860334	13.974839	35.745829
5.560000	25.050579	14.114549	35.986609
5.580000	25.241553	14.254879	36.228227
5.600000	25.433256	14.395829	36.470683
5.620000	25.625688	14.537399	36.713978
5.640000	25.818850	14.679588	36.958111
5.660000	26.012740	14.822398	37.203082
5.680000	26.207360	14.965828	37.448891
5.700000	26.402708	15.109878	37.695538
5.720000	26.598786	15.254548	37.943024
5.740000	26.795593	15.399838	38.191348
5.760000	26.993129	15.545749	38.440510
5.780000	27.191394	15.692279	38.690510
5.800000	27.390388	15.839429	38.941348
5.820000	27.590112	15.987199	39.193025
5.840000	27.790564	16.135589	39.445539
5.860000	27.991746	16.284600	39.698892
5.880000	28.193657	16.434230	39.953083
5.900000	28.396296	16.584480	40.208112
5.920000	28.599665	16.735351	40.463980
5.940000	28.803763	16.886841	40.720685
5.960000	29.008590	17.038952	40.978229
5.980000	29.214147	17.191682	41.236611
6.000000	29.420432	17.345033	41.495831
6.020000	29.627446	17.499004	41.755889
6.040000	29.835190	17.653594	42.016786
6.060000	30.043663	17.808805	42.278520
6.080000	30.252865	17.964636	42.541093
6.100000	30.462795	18.121087	42.804504
6.120000	30.673455	18.278157	43.068753
6.140000	30.884845	18.435848	43.333841
6.160000	31.096963	18.594159	43.599766
6.180000	31.309810	18.753090	43.866530
6.200000	31.523387	18.912641	44.134132
6.220000	31.737692	19.072812	44.402572
6.240000	31.952727	19.233603	44.671851
6.260000	32.168491	19.395014	44.941967
6.280000	32.384984	19.557046	45.212922
6.300000	32.602206	19.719697	45.484715
6.320000	32.820157	19.882968	45.757346
6.340000	33.038837	20.046859	46.030815
6.360000	33.258246	20.211371	46.305122
6.380000	33.478385	20.376502	46.580268
6.400000	33.699252	20.542253	46.856251
6.420000	33.920849	20.708625	47.133073
6.440000	34.143175	20.875616	47.410734
6.460000	34.366230	21.043228	47.689232
6.480000	34.590014	21.211459	47.968568
6.500000	34.814527	21.380311	48.248743
6.520000	35.039769	21.549783	48.529756
6.540000	35.265741	21.719874	48.811607
6.560000	35.492441	21.890586	49.094296
6.580000	35.719871	22.061918	49.377824
6.600000	35.948029	22.233870	49.662189
6.620000	36.176917	22.406441	49.947393
6.640000	36.406534	22.579633	50.233435
6.660000	36.636880	22.753445	50.520315
6.680000	36.867955	22.927877	50.808033
6.700000	37.099759	23.102929	51.096590
6.720000	37.332293	23.278601	51.385984
6.740000	37.565555	23.454893	51.676217
6.760000	37.799547	23.631805	51.967288
6.780000	38.034268	23.809338	52.259198
6.800000	38.269717	23.987490	52.551945
6.820000	38.505896	24.166262	52.845531
6.840000	38.742804	24.345654	53.139954
6.860000	38.980441	24.525667	53.435216
6.880000	39.218808	24.706299	53.731316
6.900000	39.457903	24.887551	54.028255
6.920000	39.697728	25.069424	54.326031
6.940000	39.938281	25.251916	54.624646
6.960000	40.179564	25.435029	54.924099
6.980000	40.421576	25.618761	55.224390
7.000000	40.664317	25.803114	55.525519
7.020000	40.907787	25.988087	55.827486
7.040000	41.151986	26.173679	56.130292
7.060000	41.396914	26.359892	56.433936
7.080000	41.642571	26.546725	56.738418
7.100000	41.888958	26.734178	57.043738
7.120000	42.136073	26.922250	57.349896
7.140000	42.383918	27.110943	57.656893
7.160000	42.632492	27.300256	57.964727
7.180000	42.881795	27.490189	58.273400
7.200000	43.131827	27.680742	58.582911
7.220000	43.382588	27.871915	58.893261
7.240000	43.634078	28.063708	59.204448
7.260000	43.886298	28.256122	59.516474
7.280000	44.139246	28.449155	59.829337
7.300000	44.392924	28.642808	60.143039
7.320000	44.647330	28.837081	60.457580
7.340000	44.902466	29.031974	60.772958
7.360000	45.158331	29.227488	61.089174
7.380000	45.414925	29.423621	61.406229
7.400000	45.672248	29.620374	61.724122
7.420000	45.930300	29.817748	62.042853
7.440000	46.189082	30.015741	62.362422
7.460000	46.448592	30.214355	62.682830
7.480000	46.708832	30.413589	63.004075
7.500000	46.969801	30.613442	63.326159
7.520000	47.231498	30.813916	63.649081
7.540000	47.493925	31.015009	63.972841
7.560000	47.757081	31.216723	64.297440
7.580000	48.020967	31.419057	64.622876
7.600000	48.285581	31.622011	64.949151
7.620000	48.550924	31.825585	65.276264
7.640000	48.816997	32.029778	65.604215
7.660000	49.083798	32.234592	65.933004
7.680000	49.351329	32.440026	66.262631
7.700000	49.619589	32.646080	66.593097
7.720000	49.888578	32.852754	66.924401
7.740000	50.158296	33.060048	67.256543
7.760000	50.428743	33.267963	67.589523
7.780000	50.699919	33.476497	67.923341
7.800000	50.971824	33.685651	68.257998
7.820000	51.244459	33.895425	68.593493
7.840000	51.517822	34.105820	68.929825
7.860000	51.791915	34.316834	69.266997
7.880000	52.066737	34.528468	69.605006
7.900000	52.342288	34.740723	69.943853
7.920000	52.618568	34.953597	70.283539
7.940000	52.895577	35.167092	70.624063
7.960000	53.173315	35.381206	70.965425
7.980000	53.451783	35.595941	71.307625
8.000000	53.730979	35.811295	71.650663
8.020000	54.010905	36.027270	71.994540
8.040000	54.291559	36.243865	72.339254
8.060000	54.572943	36.461079	72.684807
8.080000	54.855056	36.678914	73.031198
8.100000	55.137898	36.897369	73.378428
8.120000	55.421469	37.116444	73.726495
8.140000	55.705770	37.336139	74.075401
8.160000	55.990799	37.556454	74.425145
8.180000	56.276558	37.777388	74.775727
8.200000	56.563045	37.998943	75.127147
8.220000	56.850262	38.221119	75.479405
8.240000	57.138208	38.443914	75.832502
8.260000	57.426883	38.667329	76.186436
8.280000	57.716287	38.891364	76.541209
8.300000	58.006420	39.116019	76.896820
8.320000	58.297282	39.341294	77.253270
8.340000	58.588873	39.567190	77.610557
8.360000	58.881194	39.793705	77.968683
8.380000	59.174243	40.020840	78.327646
8.400000	59.468022	40.248596	78.687448
8.420000	59.762530	40.476971	79.048089
8.440000	60.057767	40.705967	79.409567
8.460000	60.353733	40.935582	79.771884
8.480000	60.650428	41.165818	80.135038
8.500000	60.947852	41.396673	80.499031
8.520000	61.246006	41.628149	80.863862
8.540000	61.544888	41.860245	81.229532
8.560000	61.844500	42.092960	81.596039
8.580000	62.144840	42.326296	81.963385
8.600000	62.445910	42.560252	82.331568
8.620000	62.747709	42.794828	82.700590
8.640000	63.050237	43.030024	83.070451
8.660000	63.353494	43.265840	83.441149
8.680000	63.657481	43.502276	83.812686
8.700000	63.962196	43.739332	84.185060
8.720000	64.267640	43.977008	84.558273
8.740000	64.573814	44.215304	84.932324
8.760000	64.880717	44.454220	85.307214
8.780000	65.188349	44.693756	85.682941
8.800000	65.496710	44.933912	86.059507
8.820000	65.805800	45.174689	86.436911
8.840000	66.115619	45.416085	86.815153
8.860000	66.426167	45.658101	87.194233
8.880000	66.737444	45.900738	87.574151
8.900000	67.049451	46.143994	87.954908
8.920000	67.362186	46.387870	88.336502
8.940000	67.675651	46.632367	88.718935
8.960000	67.989845	46.877483	89.102206
8.980000	68.304768	47.123220	89.486316
9.000000	68.620420	47.369577	89.871263
9.020000	68.936801	47.616553	90.257049
9.040000	69.253911	47.864150	90.643673
9.060000	69.571751	48.112367	91.031135
9.080000	69.890319	48.361203	91.419435
9.100000	70.209617	48.610660	91.808573
9.120000	70.529644	48.860737	92.198550
9.140000	70.850399	49.111434	92.589365
9.160000	71.171884	49.362751	92.981018
9.180000	71.494098	49.614688	93.373509
9.200000	71.817041	49.867245	93.766838
9.220000	72.140714	50.120422	94.161005
9.240000	72.465115	50.374219	94.556011
9.260000	72.790246	50.628636	94.951855
9.280000	73.116105	50.883673	95.348537
9.300000	73.442694	51.139331	95.746057
9.320000	73.770012	51.395608	96.144416
9.340000	74.098059	51.652505	96.543612
9.360000	74.426835	51.910022	96.943647
9.380000	74.756340	52.168160	97.344520
9.400000	75.086574	52.426917	97.746231
9.420000	75.417537	52.686295	98.148780
9.440000	75.749230	52.946292	98.552168
9.460000	76.081652	53.206910	98.956393
9.480000	76.414802	53.468147	99.361457
9.500000	76.748682	53.730005	99.767359
9.520000	77.083291	53.992483	100.174099
9.540000	77.418629	54.255580	100.581678
9.560000	77.754696	54.519298	100.990094
9.580000	78.091492	54.783636	101.399349
9.600000	78.429018	55.048594	101.809442
9.620000	78.767272	55.314171	102.220373
9.640000	79.106256	55.580369	102.632143
9.660000	79.445969	55.847187	103.044750
9.680000	79.786410	56.114625	103.458196
9.700000	80.127581	56.382683	103.872480
9.720000	80.469481	56.651361	104.287602
9.740000	80.812111	56.920659	104.703562
9.760000	81.155469	57.190578	105.120360
9.780000	81.499556	57.461116	105.537997
9.800000	81.844373	57.732274	105.956472
9.820000	82.189918	58.004052	106.375785
9.840000	82.536193	58.276450	106.795936
9.860000	82.883197	58.549469	107.216925
9.880000	83.230930	58.823107	107.638753
9.900000	83.579392	59.097366	108.061418
