<?xml version="1.0" encoding="utf-8"  standalone="no"?>
<svg 
 width="600" height="480"
 viewBox="0 0 600 480"
 xmlns="http://www.w3.org/2000/svg"
 xmlns:xlink="http://www.w3.org/1999/xlink"
>

<title>Gnuplot</title>
<desc>Produced by GNUPLOT 5.0 patchlevel 7 </desc>

<g id="gnuplot_canvas">

<rect x="0" y="0" width="600" height="480" fill="none"/>
<defs>

	<circle id='gpDot' r='0.5' stroke-width='0.5'/>
	<path id='gpPt0' stroke-width='0.222' stroke='currentColor' d='M-1,0 h2 M0,-1 v2'/>
	<path id='gpPt1' stroke-width='0.222' stroke='currentColor' d='M-1,-1 L1,1 M1,-1 L-1,1'/>
	<path id='gpPt2' stroke-width='0.222' stroke='currentColor' d='M-1,0 L1,0 M0,-1 L0,1 M-1,-1 L1,1 M-1,1 L1,-1'/>
	<rect id='gpPt3' stroke-width='0.222' stroke='currentColor' x='-1' y='-1' width='2' height='2'/>
	<rect id='gpPt4' stroke-width='0.222' stroke='currentColor' fill='currentColor' x='-1' y='-1' width='2' height='2'/>
	<circle id='gpPt5' stroke-width='0.222' stroke='currentColor' cx='0' cy='0' r='1'/>
	<use xlink:href='#gpPt5' id='gpPt6' fill='currentColor' stroke='none'/>
	<path id='gpPt7' stroke-width='0.222' stroke='currentColor' d='M0,-1.33 L-1.33,0.67 L1.33,0.67 z'/>
	<use xlink:href='#gpPt7' id='gpPt8' fill='currentColor' stroke='none'/>
	<use xlink:href='#gpPt7' id='gpPt9' stroke='currentColor' transform='rotate(180)'/>
	<use xlink:href='#gpPt9' id='gpPt10' fill='currentColor' stroke='none'/>
	<use xlink:href='#gpPt3' id='gpPt11' stroke='currentColor' transform='rotate(45)'/>
	<use xlink:href='#gpPt11' id='gpPt12' fill='currentColor' stroke='none'/>
	<path id='gpPt13' stroke-width='0.222' stroke='currentColor' d='M0,1.330 L1.265,0.411 L0.782,-1.067 L-0.782,-1.076 L-1.265,0.411 z'/>
	<use xlink:href='#gpPt13' id='gpPt14' fill='currentColor' stroke='none'/>
	<filter id='textbox' filterUnits='objectBoundingBox' x='0' y='0' height='1' width='1'>
	  <feFlood flood-color='white' flood-opacity='1' result='bgnd'/>
	  <feComposite in='SourceGraphic' in2='bgnd' operator='atop'/>
	</filter>
	<filter id='greybox' filterUnits='objectBoundingBox' x='0' y='0' height='1' width='1'>
	  <feFlood flood-color='lightgrey' flood-opacity='1' result='grey'/>
	  <feComposite in='SourceGraphic' in2='grey' operator='atop'/>
	</filter>
</defs>
<g fill="none" color="white" stroke="currentColor" stroke-width="1.00" stroke-linecap="butt" stroke-linejoin="miter">
</g>
<g fill="none" color="black" stroke="currentColor" stroke-width="1.00" stroke-linecap="butt" stroke-linejoin="miter">
	<path stroke='black'  d='M80.2,422.4 L89.2,422.4 M575.0,422.4 L566.0,422.4  '/>	<g transform="translate(71.9,426.3)" stroke="none" fill="black" font-family="Arial" font-size="12.00"  text-anchor="end">
		<text><tspan font-family="Arial" > 0.01</tspan></text>
	</g>
</g>
<g fill="none" color="black" stroke="currentColor" stroke-width="1.00" stroke-linecap="butt" stroke-linejoin="miter">
	<path stroke='black'  d='M80.2,385.4 L84.7,385.4 M575.0,385.4 L570.5,385.4 M80.2,363.8 L84.7,363.8 M575.0,363.8 L570.5,363.8
		M80.2,348.5 L84.7,348.5 M575.0,348.5 L570.5,348.5 M80.2,336.6 L84.7,336.6 M575.0,336.6 L570.5,336.6
		M80.2,326.9 L84.7,326.9 M575.0,326.9 L570.5,326.9 M80.2,318.7 L84.7,318.7 M575.0,318.7 L570.5,318.7
		M80.2,311.5 L84.7,311.5 M575.0,311.5 L570.5,311.5 M80.2,305.3 L84.7,305.3 M575.0,305.3 L570.5,305.3
		M80.2,299.6 L89.2,299.6 M575.0,299.6 L566.0,299.6  '/>	<g transform="translate(71.9,303.5)" stroke="none" fill="black" font-family="Arial" font-size="12.00"  text-anchor="end">
		<text><tspan font-family="Arial" > 0.1</tspan></text>
	</g>
</g>
<g fill="none" color="black" stroke="currentColor" stroke-width="1.00" stroke-linecap="butt" stroke-linejoin="miter">
	<path stroke='black'  d='M80.2,262.7 L84.7,262.7 M575.0,262.7 L570.5,262.7 M80.2,241.1 L84.7,241.1 M575.0,241.1 L570.5,241.1
		M80.2,225.7 L84.7,225.7 M575.0,225.7 L570.5,225.7 M80.2,213.8 L84.7,213.8 M575.0,213.8 L570.5,213.8
		M80.2,204.1 L84.7,204.1 M575.0,204.1 L570.5,204.1 M80.2,195.9 L84.7,195.9 M575.0,195.9 L570.5,195.9
		M80.2,188.8 L84.7,188.8 M575.0,188.8 L570.5,188.8 M80.2,182.5 L84.7,182.5 M575.0,182.5 L570.5,182.5
		M80.2,176.9 L89.2,176.9 M575.0,176.9 L566.0,176.9  '/>	<g transform="translate(71.9,180.8)" stroke="none" fill="black" font-family="Arial" font-size="12.00"  text-anchor="end">
		<text><tspan font-family="Arial" > 1</tspan></text>
	</g>
</g>
<g fill="none" color="black" stroke="currentColor" stroke-width="1.00" stroke-linecap="butt" stroke-linejoin="miter">
	<path stroke='black'  d='M80.2,139.9 L84.7,139.9 M575.0,139.9 L570.5,139.9 M80.2,118.3 L84.7,118.3 M575.0,118.3 L570.5,118.3
		M80.2,103.0 L84.7,103.0 M575.0,103.0 L570.5,103.0 M80.2,91.1 L84.7,91.1 M575.0,91.1 L570.5,91.1
		M80.2,81.3 L84.7,81.3 M575.0,81.3 L570.5,81.3 M80.2,73.1 L84.7,73.1 M575.0,73.1 L570.5,73.1
		M80.2,66.0 L84.7,66.0 M575.0,66.0 L570.5,66.0 M80.2,59.7 L84.7,59.7 M575.0,59.7 L570.5,59.7
		M80.2,54.1 L89.2,54.1 M575.0,54.1 L566.0,54.1  '/>	<g transform="translate(71.9,58.0)" stroke="none" fill="black" font-family="Arial" font-size="12.00"  text-anchor="end">
		<text><tspan font-family="Arial" > 10</tspan></text>
	</g>
</g>
<g fill="none" color="black" stroke="currentColor" stroke-width="1.00" stroke-linecap="butt" stroke-linejoin="miter">
	<path stroke='black'  d='M80.2,422.4 L80.2,413.4 M80.2,54.1 L80.2,63.1  '/>	<g transform="translate(80.2,444.3)" stroke="none" fill="black" font-family="Arial" font-size="12.00"  text-anchor="middle">
		<text><tspan font-family="Arial" > 100</tspan></text>
	</g>
</g>
<g fill="none" color="black" stroke="currentColor" stroke-width="1.00" stroke-linecap="butt" stroke-linejoin="miter">
	<path stroke='black'  d='M129.8,422.4 L129.8,417.9 M129.8,54.1 L129.8,58.6 M158.9,422.4 L158.9,417.9 M158.9,54.1 L158.9,58.6
		M179.5,422.4 L179.5,417.9 M179.5,54.1 L179.5,58.6 M195.5,422.4 L195.5,417.9 M195.5,54.1 L195.5,58.6
		M208.5,422.4 L208.5,417.9 M208.5,54.1 L208.5,58.6 M219.6,422.4 L219.6,417.9 M219.6,54.1 L219.6,58.6
		M229.1,422.4 L229.1,417.9 M229.1,54.1 L229.1,58.6 M237.6,422.4 L237.6,417.9 M237.6,54.1 L237.6,58.6
		M245.1,422.4 L245.1,413.4 M245.1,54.1 L245.1,63.1  '/>	<g transform="translate(245.1,444.3)" stroke="none" fill="black" font-family="Arial" font-size="12.00"  text-anchor="middle">
		<text><tspan font-family="Arial" > 1000</tspan></text>
	</g>
</g>
<g fill="none" color="black" stroke="currentColor" stroke-width="1.00" stroke-linecap="butt" stroke-linejoin="miter">
	<path stroke='black'  d='M294.8,422.4 L294.8,417.9 M294.8,54.1 L294.8,58.6 M323.8,422.4 L323.8,417.9 M323.8,54.1 L323.8,58.6
		M344.4,422.4 L344.4,417.9 M344.4,54.1 L344.4,58.6 M360.4,422.4 L360.4,417.9 M360.4,54.1 L360.4,58.6
		M373.5,422.4 L373.5,417.9 M373.5,54.1 L373.5,58.6 M384.5,422.4 L384.5,417.9 M384.5,54.1 L384.5,58.6
		M394.1,422.4 L394.1,417.9 M394.1,54.1 L394.1,58.6 M402.5,422.4 L402.5,417.9 M402.5,54.1 L402.5,58.6
		M410.1,422.4 L410.1,413.4 M410.1,54.1 L410.1,63.1  '/>	<g transform="translate(410.1,444.3)" stroke="none" fill="black" font-family="Arial" font-size="12.00"  text-anchor="middle">
		<text><tspan font-family="Arial" > 10000</tspan></text>
	</g>
</g>
<g fill="none" color="black" stroke="currentColor" stroke-width="1.00" stroke-linecap="butt" stroke-linejoin="miter">
	<path stroke='black'  d='M459.7,422.4 L459.7,417.9 M459.7,54.1 L459.7,58.6 M488.8,422.4 L488.8,417.9 M488.8,54.1 L488.8,58.6
		M509.4,422.4 L509.4,417.9 M509.4,54.1 L509.4,58.6 M525.4,422.4 L525.4,417.9 M525.4,54.1 L525.4,58.6
		M538.4,422.4 L538.4,417.9 M538.4,54.1 L538.4,58.6 M549.5,422.4 L549.5,417.9 M549.5,54.1 L549.5,58.6
		M559.0,422.4 L559.0,417.9 M559.0,54.1 L559.0,58.6 M567.5,422.4 L567.5,417.9 M567.5,54.1 L567.5,58.6
		M575.0,422.4 L575.0,413.4 M575.0,54.1 L575.0,63.1  '/>	<g transform="translate(575.0,444.3)" stroke="none" fill="black" font-family="Arial" font-size="12.00"  text-anchor="middle">
		<text><tspan font-family="Arial" > 100000</tspan></text>
	</g>
</g>
<g fill="none" color="black" stroke="currentColor" stroke-width="1.00" stroke-linecap="butt" stroke-linejoin="miter">
</g>
<g fill="none" color="black" stroke="currentColor" stroke-width="1.00" stroke-linecap="butt" stroke-linejoin="miter">
	<path stroke='black'  d='M80.2,54.1 L80.2,422.4 L575.0,422.4 L575.0,54.1 L80.2,54.1 Z  '/></g>
<g fill="none" color="black" stroke="currentColor" stroke-width="1.00" stroke-linecap="butt" stroke-linejoin="miter">
	<g transform="translate(17.0,238.3) rotate(270)" stroke="none" fill="black" font-family="Arial" font-size="12.00"  text-anchor="middle">
		<text><tspan font-family="Arial" >Error</tspan></text>
	</g>
</g>
<g fill="none" color="black" stroke="currentColor" stroke-width="1.00" stroke-linecap="butt" stroke-linejoin="miter">
	<g transform="translate(327.6,471.3)" stroke="none" fill="black" font-family="Arial" font-size="12.00"  text-anchor="middle">
		<text><tspan font-family="Arial" >N</tspan></text>
	</g>
</g>
<g fill="none" color="black" stroke="currentColor" stroke-width="1.00" stroke-linecap="butt" stroke-linejoin="miter">
	<g transform="translate(327.6,31.0)" stroke="none" fill="black" font-family="Arial" font-size="12.00"  text-anchor="middle">
		<text><tspan font-family="Arial" >Errors for monte carlo integration vs system size N</tspan></text>
	</g>
</g>
	<g id="gnuplot_plot_1" ><title>Error</title>
<g fill="none" color="black" stroke="currentColor" stroke-width="1.00" stroke-linecap="butt" stroke-linejoin="miter">
	<g transform="translate(507.9,76.0)" stroke="none" fill="black" font-family="Arial" font-size="12.00"  text-anchor="end">
		<text><tspan font-family="Arial" >Error</tspan></text>
	</g>
</g>
<g fill="none" color="black" stroke="currentColor" stroke-width="1.00" stroke-linecap="butt" stroke-linejoin="miter">
	<use xlink:href='#gpPt0' transform='translate(80.2,169.4) scale(4.50)' color='rgb(148,   0, 211)'/>
	<use xlink:href='#gpPt0' transform='translate(93.3,179.5) scale(4.50)' color='rgb(148,   0, 211)'/>
	<use xlink:href='#gpPt0' transform='translate(106.3,178.0) scale(4.50)' color='rgb(148,   0, 211)'/>
	<use xlink:href='#gpPt0' transform='translate(119.0,181.8) scale(4.50)' color='rgb(148,   0, 211)'/>
	<use xlink:href='#gpPt0' transform='translate(132.0,185.3) scale(4.50)' color='rgb(148,   0, 211)'/>
	<use xlink:href='#gpPt0' transform='translate(145.0,190.4) scale(4.50)' color='rgb(148,   0, 211)'/>
	<use xlink:href='#gpPt0' transform='translate(157.9,197.0) scale(4.50)' color='rgb(148,   0, 211)'/>
	<use xlink:href='#gpPt0' transform='translate(171.0,199.7) scale(4.50)' color='rgb(148,   0, 211)'/>
	<use xlink:href='#gpPt0' transform='translate(184.0,204.0) scale(4.50)' color='rgb(148,   0, 211)'/>
	<use xlink:href='#gpPt0' transform='translate(197.0,211.7) scale(4.50)' color='rgb(148,   0, 211)'/>
	<use xlink:href='#gpPt0' transform='translate(210.1,216.8) scale(4.50)' color='rgb(148,   0, 211)'/>
	<use xlink:href='#gpPt0' transform='translate(223.1,220.8) scale(4.50)' color='rgb(148,   0, 211)'/>
	<use xlink:href='#gpPt0' transform='translate(236.1,225.0) scale(4.50)' color='rgb(148,   0, 211)'/>
	<use xlink:href='#gpPt0' transform='translate(249.2,230.4) scale(4.50)' color='rgb(148,   0, 211)'/>
	<use xlink:href='#gpPt0' transform='translate(262.2,234.0) scale(4.50)' color='rgb(148,   0, 211)'/>
	<use xlink:href='#gpPt0' transform='translate(275.2,240.3) scale(4.50)' color='rgb(148,   0, 211)'/>
	<use xlink:href='#gpPt0' transform='translate(288.3,244.1) scale(4.50)' color='rgb(148,   0, 211)'/>
	<use xlink:href='#gpPt0' transform='translate(301.3,249.2) scale(4.50)' color='rgb(148,   0, 211)'/>
	<use xlink:href='#gpPt0' transform='translate(314.4,254.0) scale(4.50)' color='rgb(148,   0, 211)'/>
	<use xlink:href='#gpPt0' transform='translate(327.4,258.5) scale(4.50)' color='rgb(148,   0, 211)'/>
	<use xlink:href='#gpPt0' transform='translate(340.5,264.0) scale(4.50)' color='rgb(148,   0, 211)'/>
	<use xlink:href='#gpPt0' transform='translate(353.5,268.6) scale(4.50)' color='rgb(148,   0, 211)'/>
	<use xlink:href='#gpPt0' transform='translate(366.6,273.9) scale(4.50)' color='rgb(148,   0, 211)'/>
	<use xlink:href='#gpPt0' transform='translate(379.6,278.6) scale(4.50)' color='rgb(148,   0, 211)'/>
	<use xlink:href='#gpPt0' transform='translate(392.7,283.6) scale(4.50)' color='rgb(148,   0, 211)'/>
	<use xlink:href='#gpPt0' transform='translate(405.7,288.9) scale(4.50)' color='rgb(148,   0, 211)'/>
	<use xlink:href='#gpPt0' transform='translate(418.8,293.3) scale(4.50)' color='rgb(148,   0, 211)'/>
	<use xlink:href='#gpPt0' transform='translate(431.8,297.8) scale(4.50)' color='rgb(148,   0, 211)'/>
	<use xlink:href='#gpPt0' transform='translate(444.9,302.9) scale(4.50)' color='rgb(148,   0, 211)'/>
	<use xlink:href='#gpPt0' transform='translate(458.0,307.5) scale(4.50)' color='rgb(148,   0, 211)'/>
	<use xlink:href='#gpPt0' transform='translate(471.0,312.3) scale(4.50)' color='rgb(148,   0, 211)'/>
	<use xlink:href='#gpPt0' transform='translate(484.1,317.5) scale(4.50)' color='rgb(148,   0, 211)'/>
	<use xlink:href='#gpPt0' transform='translate(497.1,322.1) scale(4.50)' color='rgb(148,   0, 211)'/>
	<use xlink:href='#gpPt0' transform='translate(510.2,327.0) scale(4.50)' color='rgb(148,   0, 211)'/>
	<use xlink:href='#gpPt0' transform='translate(523.2,331.8) scale(4.50)' color='rgb(148,   0, 211)'/>
	<use xlink:href='#gpPt0' transform='translate(536.3,336.7) scale(4.50)' color='rgb(148,   0, 211)'/>
	<use xlink:href='#gpPt0' transform='translate(549.4,341.8) scale(4.50)' color='rgb(148,   0, 211)'/>
	<use xlink:href='#gpPt0' transform='translate(562.4,346.4) scale(4.50)' color='rgb(148,   0, 211)'/>
	<use xlink:href='#gpPt0' transform='translate(537.3,72.1) scale(4.50)' color='rgb(148,   0, 211)'/>
</g>
	</g>
	<g id="gnuplot_plot_2" ><title>1/sqrt(N)</title>
<g fill="none" color="black" stroke="currentColor" stroke-width="1.00" stroke-linecap="butt" stroke-linejoin="miter">
	<g transform="translate(507.9,94.0)" stroke="none" fill="black" font-family="Arial" font-size="12.00"  text-anchor="end">
		<text><tspan font-family="Arial" >1/sqrt(N)</tspan></text>
	</g>
</g>
<g fill="none" color="black" stroke="currentColor" stroke-width="1.00" stroke-linecap="butt" stroke-linejoin="miter">
	<path stroke='rgb(  0, 158, 115)'  d='M516.2,90.1 L558.4,90.1 M80.2,169.4 L93.3,174.2 L106.3,179.1 L119.0,183.8 L132.0,188.6 L145.0,193.5
		L157.9,198.3 L171.0,203.1 L184.0,208.0 L197.0,212.9 L210.1,217.7 L223.1,222.5 L236.1,227.4 L249.2,232.3
		L262.2,237.1 L275.2,242.0 L288.3,246.8 L301.3,251.7 L314.4,256.5 L327.4,261.4 L340.5,266.2 L353.5,271.1
		L366.6,275.9 L379.6,280.8 L392.7,285.7 L405.7,290.5 L418.8,295.4 L431.8,300.2 L444.9,305.1 L458.0,310.0
		L471.0,314.8 L484.1,319.7 L497.1,324.5 L510.2,329.4 L523.2,334.3 L536.3,339.1 L549.4,344.0 L562.4,348.8
		 '/></g>
	</g>
<g fill="none" color="white" stroke="rgb(  0, 158, 115)" stroke-width="2.00" stroke-linecap="butt" stroke-linejoin="miter">
</g>
<g fill="none" color="black" stroke="currentColor" stroke-width="2.00" stroke-linecap="butt" stroke-linejoin="miter">
</g>
<g fill="none" color="black" stroke="black" stroke-width="1.00" stroke-linecap="butt" stroke-linejoin="miter">
</g>
<g fill="none" color="black" stroke="currentColor" stroke-width="1.00" stroke-linecap="butt" stroke-linejoin="miter">
	<path stroke='black'  d='M80.2,54.1 L80.2,422.4 L575.0,422.4 L575.0,54.1 L80.2,54.1 Z  '/></g>
<g fill="none" color="black" stroke="currentColor" stroke-width="1.00" stroke-linecap="butt" stroke-linejoin="miter">
</g>
</g>
</svg>

