\relax 
\bibdata{reportNotes}
\bibstyle{apsrev4-1}
\citation{REVTEX41Control}
\citation{apsrev41Control}
\newlabel{FirstPage}{{}{1}{}{}{}}
\@writefile{toc}{\contentsline {title}{Artificial Neural Network for Solving Ordinary Differential Equations}{1}{}}
\@writefile{toc}{\contentsline {abstract}{Abstract}{1}{}}
\@writefile{lof}{\contentsline {figure}{\numberline {1}{\ignorespaces Plot of the analytic solution and input (the same data) as well as the interpolation provided by the artificial neural network. This is for the logistic function.}}{1}{}}
\newlabel{fig:plot}{{1}{1}{}{}{}}
\@writefile{toc}{\contentsline {section}{\numberline {I}The Problem}{1}{}}
\newlabel{eq:ode}{{1}{1}{}{}{}}
\newlabel{eq:odeinitial}{{2}{1}{}{}{}}
\newlabel{eq:ode1}{{3}{1}{}{}{}}
\newlabel{eq:ode2}{{4}{1}{}{}{}}
\@writefile{toc}{\contentsline {section}{\numberline {II}The result}{1}{}}
\@writefile{lof}{\contentsline {figure}{\numberline {2}{\ignorespaces Plot of the analytic solution and input (the same data) as well as the interpolation provided by the artificial neural network. This is for the Gaussian function.}}{2}{}}
\newlabel{fig:plot2}{{2}{2}{}{}{}}
\newlabel{LastPage}{{}{2}{}{}{}}
