\relax 
\bibdata{reportNotes}
\bibstyle{apsrev4-1}
\citation{REVTEX41Control}
\citation{apsrev41Control}
\newlabel{FirstPage}{{}{1}{}{}{}}
\@writefile{toc}{\contentsline {title}{Square root (root finding)}{1}{}}
\@writefile{toc}{\contentsline {abstract}{Abstract}{1}{}}
\@writefile{lof}{\contentsline {figure}{\numberline {1}{\ignorespaces Plot of the square root function between 0 and 20 as described in this algorithm and that of the math.h C library.}}{1}{}}
\newlabel{fig:plot}{{1}{1}{}{}{}}
\@writefile{toc}{\contentsline {section}{\numberline {I}The Algorithm}{1}{}}
\newlabel{eq:sqrt}{{1}{1}{}{}{}}
\@writefile{toc}{\contentsline {section}{\numberline {II}Speed up}{1}{}}
\@writefile{toc}{\contentsline {section}{\numberline {III}Result}{1}{}}
\newlabel{LastPage}{{}{1}{}{}{}}
