<?xml version="1.0" encoding="utf-8"  standalone="no"?>
<svg 
 width="600" height="480"
 viewBox="0 0 600 480"
 xmlns="http://www.w3.org/2000/svg"
 xmlns:xlink="http://www.w3.org/1999/xlink"
>

<title>Gnuplot</title>
<desc>Produced by GNUPLOT 5.0 patchlevel 7 </desc>

<g id="gnuplot_canvas">

<rect x="0" y="0" width="600" height="480" fill="none"/>
<defs>

	<circle id='gpDot' r='0.5' stroke-width='0.5'/>
	<path id='gpPt0' stroke-width='0.222' stroke='currentColor' d='M-1,0 h2 M0,-1 v2'/>
	<path id='gpPt1' stroke-width='0.222' stroke='currentColor' d='M-1,-1 L1,1 M1,-1 L-1,1'/>
	<path id='gpPt2' stroke-width='0.222' stroke='currentColor' d='M-1,0 L1,0 M0,-1 L0,1 M-1,-1 L1,1 M-1,1 L1,-1'/>
	<rect id='gpPt3' stroke-width='0.222' stroke='currentColor' x='-1' y='-1' width='2' height='2'/>
	<rect id='gpPt4' stroke-width='0.222' stroke='currentColor' fill='currentColor' x='-1' y='-1' width='2' height='2'/>
	<circle id='gpPt5' stroke-width='0.222' stroke='currentColor' cx='0' cy='0' r='1'/>
	<use xlink:href='#gpPt5' id='gpPt6' fill='currentColor' stroke='none'/>
	<path id='gpPt7' stroke-width='0.222' stroke='currentColor' d='M0,-1.33 L-1.33,0.67 L1.33,0.67 z'/>
	<use xlink:href='#gpPt7' id='gpPt8' fill='currentColor' stroke='none'/>
	<use xlink:href='#gpPt7' id='gpPt9' stroke='currentColor' transform='rotate(180)'/>
	<use xlink:href='#gpPt9' id='gpPt10' fill='currentColor' stroke='none'/>
	<use xlink:href='#gpPt3' id='gpPt11' stroke='currentColor' transform='rotate(45)'/>
	<use xlink:href='#gpPt11' id='gpPt12' fill='currentColor' stroke='none'/>
	<path id='gpPt13' stroke-width='0.222' stroke='currentColor' d='M0,1.330 L1.265,0.411 L0.782,-1.067 L-0.782,-1.076 L-1.265,0.411 z'/>
	<use xlink:href='#gpPt13' id='gpPt14' fill='currentColor' stroke='none'/>
	<filter id='textbox' filterUnits='objectBoundingBox' x='0' y='0' height='1' width='1'>
	  <feFlood flood-color='white' flood-opacity='1' result='bgnd'/>
	  <feComposite in='SourceGraphic' in2='bgnd' operator='atop'/>
	</filter>
	<filter id='greybox' filterUnits='objectBoundingBox' x='0' y='0' height='1' width='1'>
	  <feFlood flood-color='lightgrey' flood-opacity='1' result='grey'/>
	  <feComposite in='SourceGraphic' in2='grey' operator='atop'/>
	</filter>
</defs>
<g fill="none" color="white" stroke="currentColor" stroke-width="1.00" stroke-linecap="butt" stroke-linejoin="miter">
</g>
<g fill="none" color="black" stroke="currentColor" stroke-width="1.00" stroke-linecap="butt" stroke-linejoin="miter">
	<path stroke='black'  d='M53.9,444.0 L62.9,444.0 M575.0,444.0 L566.0,444.0  '/>	<g transform="translate(45.6,447.9)" stroke="none" fill="black" font-family="Arial" font-size="12.00"  text-anchor="end">
		<text><tspan font-family="Arial" > 0</tspan></text>
	</g>
</g>
<g fill="none" color="black" stroke="currentColor" stroke-width="1.00" stroke-linecap="butt" stroke-linejoin="miter">
	<path stroke='black'  d='M53.9,372.8 L62.9,372.8 M575.0,372.8 L566.0,372.8  '/>	<g transform="translate(45.6,376.7)" stroke="none" fill="black" font-family="Arial" font-size="12.00"  text-anchor="end">
		<text><tspan font-family="Arial" > 20</tspan></text>
	</g>
</g>
<g fill="none" color="black" stroke="currentColor" stroke-width="1.00" stroke-linecap="butt" stroke-linejoin="miter">
	<path stroke='black'  d='M53.9,301.6 L62.9,301.6 M575.0,301.6 L566.0,301.6  '/>	<g transform="translate(45.6,305.5)" stroke="none" fill="black" font-family="Arial" font-size="12.00"  text-anchor="end">
		<text><tspan font-family="Arial" > 40</tspan></text>
	</g>
</g>
<g fill="none" color="black" stroke="currentColor" stroke-width="1.00" stroke-linecap="butt" stroke-linejoin="miter">
	<path stroke='black'  d='M53.9,230.3 L62.9,230.3 M575.0,230.3 L566.0,230.3  '/>	<g transform="translate(45.6,234.2)" stroke="none" fill="black" font-family="Arial" font-size="12.00"  text-anchor="end">
		<text><tspan font-family="Arial" > 60</tspan></text>
	</g>
</g>
<g fill="none" color="black" stroke="currentColor" stroke-width="1.00" stroke-linecap="butt" stroke-linejoin="miter">
	<path stroke='black'  d='M53.9,159.1 L62.9,159.1 M575.0,159.1 L566.0,159.1  '/>	<g transform="translate(45.6,163.0)" stroke="none" fill="black" font-family="Arial" font-size="12.00"  text-anchor="end">
		<text><tspan font-family="Arial" > 80</tspan></text>
	</g>
</g>
<g fill="none" color="black" stroke="currentColor" stroke-width="1.00" stroke-linecap="butt" stroke-linejoin="miter">
	<path stroke='black'  d='M53.9,87.9 L62.9,87.9 M575.0,87.9 L566.0,87.9  '/>	<g transform="translate(45.6,91.8)" stroke="none" fill="black" font-family="Arial" font-size="12.00"  text-anchor="end">
		<text><tspan font-family="Arial" > 100</tspan></text>
	</g>
</g>
<g fill="none" color="black" stroke="currentColor" stroke-width="1.00" stroke-linecap="butt" stroke-linejoin="miter">
	<path stroke='black'  d='M53.9,16.7 L62.9,16.7 M575.0,16.7 L566.0,16.7  '/>	<g transform="translate(45.6,20.6)" stroke="none" fill="black" font-family="Arial" font-size="12.00"  text-anchor="end">
		<text><tspan font-family="Arial" > 120</tspan></text>
	</g>
</g>
<g fill="none" color="black" stroke="currentColor" stroke-width="1.00" stroke-linecap="butt" stroke-linejoin="miter">
	<path stroke='black'  d='M53.9,444.0 L53.9,435.0 M53.9,16.7 L53.9,25.7  '/>	<g transform="translate(53.9,465.9)" stroke="none" fill="black" font-family="Arial" font-size="12.00"  text-anchor="middle">
		<text><tspan font-family="Arial" > 1</tspan></text>
	</g>
</g>
<g fill="none" color="black" stroke="currentColor" stroke-width="1.00" stroke-linecap="butt" stroke-linejoin="miter">
	<path stroke='black'  d='M111.8,444.0 L111.8,435.0 M111.8,16.7 L111.8,25.7  '/>	<g transform="translate(111.8,465.9)" stroke="none" fill="black" font-family="Arial" font-size="12.00"  text-anchor="middle">
		<text><tspan font-family="Arial" > 2</tspan></text>
	</g>
</g>
<g fill="none" color="black" stroke="currentColor" stroke-width="1.00" stroke-linecap="butt" stroke-linejoin="miter">
	<path stroke='black'  d='M169.7,444.0 L169.7,435.0 M169.7,16.7 L169.7,25.7  '/>	<g transform="translate(169.7,465.9)" stroke="none" fill="black" font-family="Arial" font-size="12.00"  text-anchor="middle">
		<text><tspan font-family="Arial" > 3</tspan></text>
	</g>
</g>
<g fill="none" color="black" stroke="currentColor" stroke-width="1.00" stroke-linecap="butt" stroke-linejoin="miter">
	<path stroke='black'  d='M227.6,444.0 L227.6,435.0 M227.6,16.7 L227.6,25.7  '/>	<g transform="translate(227.6,465.9)" stroke="none" fill="black" font-family="Arial" font-size="12.00"  text-anchor="middle">
		<text><tspan font-family="Arial" > 4</tspan></text>
	</g>
</g>
<g fill="none" color="black" stroke="currentColor" stroke-width="1.00" stroke-linecap="butt" stroke-linejoin="miter">
	<path stroke='black'  d='M285.5,444.0 L285.5,435.0 M285.5,16.7 L285.5,25.7  '/>	<g transform="translate(285.5,465.9)" stroke="none" fill="black" font-family="Arial" font-size="12.00"  text-anchor="middle">
		<text><tspan font-family="Arial" > 5</tspan></text>
	</g>
</g>
<g fill="none" color="black" stroke="currentColor" stroke-width="1.00" stroke-linecap="butt" stroke-linejoin="miter">
	<path stroke='black'  d='M343.4,444.0 L343.4,435.0 M343.4,16.7 L343.4,25.7  '/>	<g transform="translate(343.4,465.9)" stroke="none" fill="black" font-family="Arial" font-size="12.00"  text-anchor="middle">
		<text><tspan font-family="Arial" > 6</tspan></text>
	</g>
</g>
<g fill="none" color="black" stroke="currentColor" stroke-width="1.00" stroke-linecap="butt" stroke-linejoin="miter">
	<path stroke='black'  d='M401.3,444.0 L401.3,435.0 M401.3,16.7 L401.3,25.7  '/>	<g transform="translate(401.3,465.9)" stroke="none" fill="black" font-family="Arial" font-size="12.00"  text-anchor="middle">
		<text><tspan font-family="Arial" > 7</tspan></text>
	</g>
</g>
<g fill="none" color="black" stroke="currentColor" stroke-width="1.00" stroke-linecap="butt" stroke-linejoin="miter">
	<path stroke='black'  d='M459.2,444.0 L459.2,435.0 M459.2,16.7 L459.2,25.7  '/>	<g transform="translate(459.2,465.9)" stroke="none" fill="black" font-family="Arial" font-size="12.00"  text-anchor="middle">
		<text><tspan font-family="Arial" > 8</tspan></text>
	</g>
</g>
<g fill="none" color="black" stroke="currentColor" stroke-width="1.00" stroke-linecap="butt" stroke-linejoin="miter">
	<path stroke='black'  d='M517.1,444.0 L517.1,435.0 M517.1,16.7 L517.1,25.7  '/>	<g transform="translate(517.1,465.9)" stroke="none" fill="black" font-family="Arial" font-size="12.00"  text-anchor="middle">
		<text><tspan font-family="Arial" > 9</tspan></text>
	</g>
</g>
<g fill="none" color="black" stroke="currentColor" stroke-width="1.00" stroke-linecap="butt" stroke-linejoin="miter">
	<path stroke='black'  d='M575.0,444.0 L575.0,435.0 M575.0,16.7 L575.0,25.7  '/>	<g transform="translate(575.0,465.9)" stroke="none" fill="black" font-family="Arial" font-size="12.00"  text-anchor="middle">
		<text><tspan font-family="Arial" > 10</tspan></text>
	</g>
</g>
<g fill="none" color="black" stroke="currentColor" stroke-width="1.00" stroke-linecap="butt" stroke-linejoin="miter">
</g>
<g fill="none" color="black" stroke="currentColor" stroke-width="1.00" stroke-linecap="butt" stroke-linejoin="miter">
	<path stroke='black'  d='M53.9,16.7 L53.9,444.0 L575.0,444.0 L575.0,16.7 L53.9,16.7 Z  '/></g>
<g fill="none" color="black" stroke="currentColor" stroke-width="1.00" stroke-linecap="butt" stroke-linejoin="miter">
</g>
	<g id="gnuplot_plot_1" ><title>Linear Interpolation</title>
<g fill="none" color="black" stroke="currentColor" stroke-width="1.00" stroke-linecap="butt" stroke-linejoin="miter">
	<g transform="translate(507.9,38.6)" stroke="none" fill="black" font-family="Arial" font-size="12.00"  text-anchor="end">
		<text><tspan font-family="Arial" >Linear Interpolation</tspan></text>
	</g>
</g>
<g fill="none" color="black" stroke="currentColor" stroke-width="1.00" stroke-linecap="butt" stroke-linejoin="miter">
	<path stroke='rgb(148,   0, 211)'  d='M516.2,34.7 L558.4,34.7 M53.9,412.0 L59.7,412.7 L65.5,413.4 L71.3,414.1 L77.1,414.8 L82.9,415.5
		L88.6,416.2 L94.4,416.9 L100.2,417.6 L106.0,418.4 L111.8,419.1 L117.6,419.8 L123.4,420.5 L129.2,421.2
		L135.0,421.9 L140.8,422.6 L146.5,423.3 L152.3,424.1 L158.1,424.8 L163.9,425.5 L169.7,426.2 L175.5,425.1
		L181.3,424.1 L187.1,423.0 L192.9,421.9 L198.7,420.9 L204.4,419.8 L210.2,418.7 L216.0,417.6 L221.8,416.6
		L227.6,415.5 L233.4,414.3 L239.2,413.0 L245.0,411.8 L250.8,410.5 L256.6,409.3 L262.3,408.0 L268.1,406.8
		L273.9,405.5 L279.7,404.3 L285.5,403.1 L291.3,401.8 L297.1,400.6 L302.9,399.3 L308.7,398.1 L314.5,396.8
		L320.2,395.6 L326.0,394.3 L331.8,393.1 L337.6,391.8 L343.4,390.6 L349.2,389.3 L355.0,388.1 L360.8,386.8
		L366.6,385.6 L372.4,384.4 L378.1,383.1 L383.9,381.9 L389.7,380.6 L395.5,379.4 L401.3,378.1 L407.1,376.9
		L412.9,375.6 L418.7,374.4 L424.5,373.1 L430.3,371.9 L436.0,370.6 L441.8,369.4 L447.6,368.2 L453.4,366.9
		L459.2,365.7 L465.0,369.2 L470.8,372.8 L476.6,376.3 L482.4,379.9 L488.2,383.5 L493.9,387.0 L499.7,390.6
		L505.5,394.1 L511.3,397.7 L517.1,401.3 L522.9,402.0 L528.7,402.7 L534.5,403.4 L540.3,404.1 L546.1,404.8
		L551.8,405.5 L557.6,406.3 L563.4,407.0 L569.2,407.7 L575.0,408.4  '/></g>
	</g>
	<g id="gnuplot_plot_2" ><title>Integral</title>
<g fill="none" color="black" stroke="currentColor" stroke-width="1.00" stroke-linecap="butt" stroke-linejoin="miter">
	<g transform="translate(507.9,56.6)" stroke="none" fill="black" font-family="Arial" font-size="12.00"  text-anchor="end">
		<text><tspan font-family="Arial" >Integral</tspan></text>
	</g>
</g>
<g fill="none" color="black" stroke="currentColor" stroke-width="1.00" stroke-linecap="butt" stroke-linejoin="miter">
	<path stroke='rgb(  0, 158, 115)'  d='M516.2,52.7 L558.4,52.7 M53.9,444.0 L59.7,440.8 L65.5,437.7 L71.3,434.7 L77.1,431.8 L82.9,428.9
		L88.6,426.1 L94.4,423.3 L100.2,420.6 L106.0,418.0 L111.8,415.5 L117.6,413.1 L123.4,410.7 L129.2,408.4
		L135.0,406.1 L140.8,403.9 L146.5,401.8 L152.3,399.8 L158.1,397.9 L163.9,396.0 L169.7,394.1 L175.5,392.3
		L181.3,390.4 L187.1,388.3 L192.9,386.2 L198.7,383.9 L204.4,381.5 L210.2,379.1 L216.0,376.5 L221.8,373.8
		L227.6,371.0 L233.4,368.1 L239.2,365.1 L245.0,361.9 L250.8,358.6 L256.6,355.2 L262.3,351.7 L268.1,348.0
		L273.9,344.2 L279.7,340.3 L285.5,336.3 L291.3,332.1 L297.1,327.8 L302.9,323.4 L308.7,318.9 L314.5,314.3
		L320.2,309.5 L326.0,304.6 L331.8,299.5 L337.6,294.4 L343.4,289.1 L349.2,283.7 L355.0,278.2 L360.8,272.5
		L366.6,266.7 L372.4,260.8 L378.1,254.8 L383.9,248.7 L389.7,242.4 L395.5,236.0 L401.3,229.5 L407.1,222.8
		L412.9,216.0 L418.7,209.1 L424.5,202.1 L430.3,195.0 L436.0,187.7 L441.8,180.3 L447.6,172.8 L453.4,165.1
		L459.2,157.4 L465.0,149.7 L470.8,142.4 L476.6,135.5 L482.4,128.9 L488.2,122.6 L493.9,116.8 L499.7,111.2
		L505.5,106.1 L511.3,101.3 L517.1,96.8 L522.9,92.6 L528.7,88.4 L534.5,84.3 L540.3,80.3 L546.1,76.3
		L551.8,72.5 L557.6,68.7 L563.4,64.9 L569.2,61.2 L575.0,57.6  '/></g>
	</g>
	<g id="gnuplot_plot_3" ><title>Input Data</title>
<g fill="none" color="black" stroke="currentColor" stroke-width="1.00" stroke-linecap="butt" stroke-linejoin="miter">
	<g transform="translate(507.9,74.6)" stroke="none" fill="black" font-family="Arial" font-size="12.00"  text-anchor="end">
		<text><tspan font-family="Arial" >Input Data</tspan></text>
	</g>
</g>
<g fill="none" color="black" stroke="currentColor" stroke-width="1.00" stroke-linecap="butt" stroke-linejoin="miter">
	<use xlink:href='#gpPt2' transform='translate(53.9,412.0) scale(4.50)' color='rgb( 86, 180, 233)'/>
	<use xlink:href='#gpPt2' transform='translate(169.7,426.2) scale(4.50)' color='rgb( 86, 180, 233)'/>
	<use xlink:href='#gpPt2' transform='translate(227.6,415.5) scale(4.50)' color='rgb( 86, 180, 233)'/>
	<use xlink:href='#gpPt2' transform='translate(459.2,365.7) scale(4.50)' color='rgb( 86, 180, 233)'/>
	<use xlink:href='#gpPt2' transform='translate(517.1,401.3) scale(4.50)' color='rgb( 86, 180, 233)'/>
	<use xlink:href='#gpPt2' transform='translate(575.0,408.4) scale(4.50)' color='rgb( 86, 180, 233)'/>
	<use xlink:href='#gpPt2' transform='translate(537.3,70.7) scale(4.50)' color='rgb( 86, 180, 233)'/>
</g>
	</g>
<g fill="none" color="white" stroke="rgb( 86, 180, 233)" stroke-width="2.00" stroke-linecap="butt" stroke-linejoin="miter">
</g>
<g fill="none" color="black" stroke="currentColor" stroke-width="2.00" stroke-linecap="butt" stroke-linejoin="miter">
</g>
<g fill="none" color="black" stroke="black" stroke-width="1.00" stroke-linecap="butt" stroke-linejoin="miter">
</g>
<g fill="none" color="black" stroke="currentColor" stroke-width="1.00" stroke-linecap="butt" stroke-linejoin="miter">
	<path stroke='black'  d='M53.9,16.7 L53.9,444.0 L575.0,444.0 L575.0,16.7 L53.9,16.7 Z  '/></g>
<g fill="none" color="black" stroke="currentColor" stroke-width="1.00" stroke-linecap="butt" stroke-linejoin="miter">
</g>
</g>
</svg>

