<?xml version="1.0" encoding="utf-8"  standalone="no"?>
<svg 
 width="600" height="480"
 viewBox="0 0 600 480"
 xmlns="http://www.w3.org/2000/svg"
 xmlns:xlink="http://www.w3.org/1999/xlink"
>

<title>Gnuplot</title>
<desc>Produced by GNUPLOT 5.0 patchlevel 7 </desc>

<g id="gnuplot_canvas">

<rect x="0" y="0" width="600" height="480" fill="none"/>
<defs>

	<circle id='gpDot' r='0.5' stroke-width='0.5'/>
	<path id='gpPt0' stroke-width='0.222' stroke='currentColor' d='M-1,0 h2 M0,-1 v2'/>
	<path id='gpPt1' stroke-width='0.222' stroke='currentColor' d='M-1,-1 L1,1 M1,-1 L-1,1'/>
	<path id='gpPt2' stroke-width='0.222' stroke='currentColor' d='M-1,0 L1,0 M0,-1 L0,1 M-1,-1 L1,1 M-1,1 L1,-1'/>
	<rect id='gpPt3' stroke-width='0.222' stroke='currentColor' x='-1' y='-1' width='2' height='2'/>
	<rect id='gpPt4' stroke-width='0.222' stroke='currentColor' fill='currentColor' x='-1' y='-1' width='2' height='2'/>
	<circle id='gpPt5' stroke-width='0.222' stroke='currentColor' cx='0' cy='0' r='1'/>
	<use xlink:href='#gpPt5' id='gpPt6' fill='currentColor' stroke='none'/>
	<path id='gpPt7' stroke-width='0.222' stroke='currentColor' d='M0,-1.33 L-1.33,0.67 L1.33,0.67 z'/>
	<use xlink:href='#gpPt7' id='gpPt8' fill='currentColor' stroke='none'/>
	<use xlink:href='#gpPt7' id='gpPt9' stroke='currentColor' transform='rotate(180)'/>
	<use xlink:href='#gpPt9' id='gpPt10' fill='currentColor' stroke='none'/>
	<use xlink:href='#gpPt3' id='gpPt11' stroke='currentColor' transform='rotate(45)'/>
	<use xlink:href='#gpPt11' id='gpPt12' fill='currentColor' stroke='none'/>
	<path id='gpPt13' stroke-width='0.222' stroke='currentColor' d='M0,1.330 L1.265,0.411 L0.782,-1.067 L-0.782,-1.076 L-1.265,0.411 z'/>
	<use xlink:href='#gpPt13' id='gpPt14' fill='currentColor' stroke='none'/>
	<filter id='textbox' filterUnits='objectBoundingBox' x='0' y='0' height='1' width='1'>
	  <feFlood flood-color='white' flood-opacity='1' result='bgnd'/>
	  <feComposite in='SourceGraphic' in2='bgnd' operator='atop'/>
	</filter>
	<filter id='greybox' filterUnits='objectBoundingBox' x='0' y='0' height='1' width='1'>
	  <feFlood flood-color='lightgrey' flood-opacity='1' result='grey'/>
	  <feComposite in='SourceGraphic' in2='grey' operator='atop'/>
	</filter>
</defs>
<g fill="none" color="white" stroke="currentColor" stroke-width="1.00" stroke-linecap="butt" stroke-linejoin="miter">
</g>
<g fill="none" color="black" stroke="currentColor" stroke-width="1.00" stroke-linecap="butt" stroke-linejoin="miter">
	<path stroke='black'  d='M53.9,444.0 L62.9,444.0 M575.0,444.0 L566.0,444.0  '/>	<g transform="translate(45.6,447.9)" stroke="none" fill="black" font-family="Arial" font-size="12.00"  text-anchor="end">
		<text><tspan font-family="Arial" >-20</tspan></text>
	</g>
</g>
<g fill="none" color="black" stroke="currentColor" stroke-width="1.00" stroke-linecap="butt" stroke-linejoin="miter">
	<path stroke='black'  d='M53.9,390.6 L62.9,390.6 M575.0,390.6 L566.0,390.6  '/>	<g transform="translate(45.6,394.5)" stroke="none" fill="black" font-family="Arial" font-size="12.00"  text-anchor="end">
		<text><tspan font-family="Arial" > 0</tspan></text>
	</g>
</g>
<g fill="none" color="black" stroke="currentColor" stroke-width="1.00" stroke-linecap="butt" stroke-linejoin="miter">
	<path stroke='black'  d='M53.9,337.2 L62.9,337.2 M575.0,337.2 L566.0,337.2  '/>	<g transform="translate(45.6,341.1)" stroke="none" fill="black" font-family="Arial" font-size="12.00"  text-anchor="end">
		<text><tspan font-family="Arial" > 20</tspan></text>
	</g>
</g>
<g fill="none" color="black" stroke="currentColor" stroke-width="1.00" stroke-linecap="butt" stroke-linejoin="miter">
	<path stroke='black'  d='M53.9,283.8 L62.9,283.8 M575.0,283.8 L566.0,283.8  '/>	<g transform="translate(45.6,287.7)" stroke="none" fill="black" font-family="Arial" font-size="12.00"  text-anchor="end">
		<text><tspan font-family="Arial" > 40</tspan></text>
	</g>
</g>
<g fill="none" color="black" stroke="currentColor" stroke-width="1.00" stroke-linecap="butt" stroke-linejoin="miter">
	<path stroke='black'  d='M53.9,230.3 L62.9,230.3 M575.0,230.3 L566.0,230.3  '/>	<g transform="translate(45.6,234.2)" stroke="none" fill="black" font-family="Arial" font-size="12.00"  text-anchor="end">
		<text><tspan font-family="Arial" > 60</tspan></text>
	</g>
</g>
<g fill="none" color="black" stroke="currentColor" stroke-width="1.00" stroke-linecap="butt" stroke-linejoin="miter">
	<path stroke='black'  d='M53.9,176.9 L62.9,176.9 M575.0,176.9 L566.0,176.9  '/>	<g transform="translate(45.6,180.8)" stroke="none" fill="black" font-family="Arial" font-size="12.00"  text-anchor="end">
		<text><tspan font-family="Arial" > 80</tspan></text>
	</g>
</g>
<g fill="none" color="black" stroke="currentColor" stroke-width="1.00" stroke-linecap="butt" stroke-linejoin="miter">
	<path stroke='black'  d='M53.9,123.5 L62.9,123.5 M575.0,123.5 L566.0,123.5  '/>	<g transform="translate(45.6,127.4)" stroke="none" fill="black" font-family="Arial" font-size="12.00"  text-anchor="end">
		<text><tspan font-family="Arial" > 100</tspan></text>
	</g>
</g>
<g fill="none" color="black" stroke="currentColor" stroke-width="1.00" stroke-linecap="butt" stroke-linejoin="miter">
	<path stroke='black'  d='M53.9,70.1 L62.9,70.1 M575.0,70.1 L566.0,70.1  '/>	<g transform="translate(45.6,74.0)" stroke="none" fill="black" font-family="Arial" font-size="12.00"  text-anchor="end">
		<text><tspan font-family="Arial" > 120</tspan></text>
	</g>
</g>
<g fill="none" color="black" stroke="currentColor" stroke-width="1.00" stroke-linecap="butt" stroke-linejoin="miter">
	<path stroke='black'  d='M53.9,16.7 L62.9,16.7 M575.0,16.7 L566.0,16.7  '/>	<g transform="translate(45.6,20.6)" stroke="none" fill="black" font-family="Arial" font-size="12.00"  text-anchor="end">
		<text><tspan font-family="Arial" > 140</tspan></text>
	</g>
</g>
<g fill="none" color="black" stroke="currentColor" stroke-width="1.00" stroke-linecap="butt" stroke-linejoin="miter">
	<path stroke='black'  d='M53.9,444.0 L53.9,435.0 M53.9,16.7 L53.9,25.7  '/>	<g transform="translate(53.9,465.9)" stroke="none" fill="black" font-family="Arial" font-size="12.00"  text-anchor="middle">
		<text><tspan font-family="Arial" > 1</tspan></text>
	</g>
</g>
<g fill="none" color="black" stroke="currentColor" stroke-width="1.00" stroke-linecap="butt" stroke-linejoin="miter">
	<path stroke='black'  d='M111.8,444.0 L111.8,435.0 M111.8,16.7 L111.8,25.7  '/>	<g transform="translate(111.8,465.9)" stroke="none" fill="black" font-family="Arial" font-size="12.00"  text-anchor="middle">
		<text><tspan font-family="Arial" > 2</tspan></text>
	</g>
</g>
<g fill="none" color="black" stroke="currentColor" stroke-width="1.00" stroke-linecap="butt" stroke-linejoin="miter">
	<path stroke='black'  d='M169.7,444.0 L169.7,435.0 M169.7,16.7 L169.7,25.7  '/>	<g transform="translate(169.7,465.9)" stroke="none" fill="black" font-family="Arial" font-size="12.00"  text-anchor="middle">
		<text><tspan font-family="Arial" > 3</tspan></text>
	</g>
</g>
<g fill="none" color="black" stroke="currentColor" stroke-width="1.00" stroke-linecap="butt" stroke-linejoin="miter">
	<path stroke='black'  d='M227.6,444.0 L227.6,435.0 M227.6,16.7 L227.6,25.7  '/>	<g transform="translate(227.6,465.9)" stroke="none" fill="black" font-family="Arial" font-size="12.00"  text-anchor="middle">
		<text><tspan font-family="Arial" > 4</tspan></text>
	</g>
</g>
<g fill="none" color="black" stroke="currentColor" stroke-width="1.00" stroke-linecap="butt" stroke-linejoin="miter">
	<path stroke='black'  d='M285.5,444.0 L285.5,435.0 M285.5,16.7 L285.5,25.7  '/>	<g transform="translate(285.5,465.9)" stroke="none" fill="black" font-family="Arial" font-size="12.00"  text-anchor="middle">
		<text><tspan font-family="Arial" > 5</tspan></text>
	</g>
</g>
<g fill="none" color="black" stroke="currentColor" stroke-width="1.00" stroke-linecap="butt" stroke-linejoin="miter">
	<path stroke='black'  d='M343.4,444.0 L343.4,435.0 M343.4,16.7 L343.4,25.7  '/>	<g transform="translate(343.4,465.9)" stroke="none" fill="black" font-family="Arial" font-size="12.00"  text-anchor="middle">
		<text><tspan font-family="Arial" > 6</tspan></text>
	</g>
</g>
<g fill="none" color="black" stroke="currentColor" stroke-width="1.00" stroke-linecap="butt" stroke-linejoin="miter">
	<path stroke='black'  d='M401.3,444.0 L401.3,435.0 M401.3,16.7 L401.3,25.7  '/>	<g transform="translate(401.3,465.9)" stroke="none" fill="black" font-family="Arial" font-size="12.00"  text-anchor="middle">
		<text><tspan font-family="Arial" > 7</tspan></text>
	</g>
</g>
<g fill="none" color="black" stroke="currentColor" stroke-width="1.00" stroke-linecap="butt" stroke-linejoin="miter">
	<path stroke='black'  d='M459.2,444.0 L459.2,435.0 M459.2,16.7 L459.2,25.7  '/>	<g transform="translate(459.2,465.9)" stroke="none" fill="black" font-family="Arial" font-size="12.00"  text-anchor="middle">
		<text><tspan font-family="Arial" > 8</tspan></text>
	</g>
</g>
<g fill="none" color="black" stroke="currentColor" stroke-width="1.00" stroke-linecap="butt" stroke-linejoin="miter">
	<path stroke='black'  d='M517.1,444.0 L517.1,435.0 M517.1,16.7 L517.1,25.7  '/>	<g transform="translate(517.1,465.9)" stroke="none" fill="black" font-family="Arial" font-size="12.00"  text-anchor="middle">
		<text><tspan font-family="Arial" > 9</tspan></text>
	</g>
</g>
<g fill="none" color="black" stroke="currentColor" stroke-width="1.00" stroke-linecap="butt" stroke-linejoin="miter">
	<path stroke='black'  d='M575.0,444.0 L575.0,435.0 M575.0,16.7 L575.0,25.7  '/>	<g transform="translate(575.0,465.9)" stroke="none" fill="black" font-family="Arial" font-size="12.00"  text-anchor="middle">
		<text><tspan font-family="Arial" > 10</tspan></text>
	</g>
</g>
<g fill="none" color="black" stroke="currentColor" stroke-width="1.00" stroke-linecap="butt" stroke-linejoin="miter">
</g>
<g fill="none" color="black" stroke="currentColor" stroke-width="1.00" stroke-linecap="butt" stroke-linejoin="miter">
	<path stroke='black'  d='M53.9,16.7 L53.9,444.0 L575.0,444.0 L575.0,16.7 L53.9,16.7 Z  '/></g>
<g fill="none" color="black" stroke="currentColor" stroke-width="1.00" stroke-linecap="butt" stroke-linejoin="miter">
</g>
	<g id="gnuplot_plot_1" ><title>Cubic Interpolation</title>
<g fill="none" color="black" stroke="currentColor" stroke-width="1.00" stroke-linecap="butt" stroke-linejoin="miter">
	<g transform="translate(507.9,38.6)" stroke="none" fill="black" font-family="Arial" font-size="12.00"  text-anchor="end">
		<text><tspan font-family="Arial" >Cubic Interpolation</tspan></text>
	</g>
</g>
<g fill="none" color="black" stroke="currentColor" stroke-width="1.00" stroke-linecap="butt" stroke-linejoin="miter">
	<path stroke='rgb(148,   0, 211)'  d='M516.2,34.7 L558.4,34.7 M53.9,366.6 L59.7,367.5 L65.5,368.4 L71.3,369.3 L77.1,370.2 L82.9,371.0
		L88.6,371.8 L94.4,372.6 L100.2,373.4 L106.0,374.1 L111.8,374.8 L117.6,375.4 L123.4,375.9 L129.2,376.4
		L135.0,376.8 L140.8,377.1 L146.5,377.3 L152.3,377.4 L158.1,377.5 L163.9,377.4 L169.7,377.2 L175.5,376.9
		L181.3,376.5 L187.1,376.0 L192.9,375.4 L198.7,374.7 L204.4,373.8 L210.2,372.8 L216.0,371.7 L221.8,370.5
		L227.6,369.2 L233.4,367.8 L239.2,366.3 L245.0,364.6 L250.8,362.9 L256.6,361.2 L262.3,359.3 L268.1,357.4
		L273.9,355.5 L279.7,353.5 L285.5,351.5 L291.3,349.5 L297.1,347.5 L302.9,345.5 L308.7,343.5 L314.5,341.6
		L320.2,339.7 L326.0,337.8 L331.8,336.0 L337.6,334.2 L343.4,332.6 L349.2,331.0 L355.0,329.6 L360.8,328.2
		L366.6,327.0 L372.4,325.9 L378.1,324.9 L383.9,324.1 L389.7,323.4 L395.5,322.9 L401.3,322.6 L407.1,322.5
		L412.9,322.6 L418.7,322.9 L424.5,323.4 L430.3,324.2 L436.0,325.2 L441.8,326.5 L447.6,328.0 L453.4,329.8
		L459.2,331.8 L465.0,334.2 L470.8,336.8 L476.6,339.5 L482.4,342.4 L488.2,345.3 L493.9,348.2 L499.7,351.1
		L505.5,353.8 L511.3,356.3 L517.1,358.5 L522.9,360.5 L528.7,362.1 L534.5,363.5 L540.3,364.5 L546.1,365.2
		L551.8,365.6 L557.6,365.6 L563.4,365.4 L569.2,364.8 L575.0,363.9  '/></g>
	</g>
	<g id="gnuplot_plot_2" ><title>GSL Spline</title>
<g fill="none" color="black" stroke="currentColor" stroke-width="1.00" stroke-linecap="butt" stroke-linejoin="miter">
	<g transform="translate(507.9,56.6)" stroke="none" fill="black" font-family="Arial" font-size="12.00"  text-anchor="end">
		<text><tspan font-family="Arial" >GSL Spline</tspan></text>
	</g>
</g>
<g fill="none" color="black" stroke="currentColor" stroke-width="1.00" stroke-linecap="butt" stroke-linejoin="miter">
	<path stroke='rgb(  0, 158, 115)'  d='M516.2,52.7 L558.4,52.7 M53.9,390.6 L53.9,366.6 L54.5,366.6 L55.1,366.6 L55.1,366.7 L55.6,366.7
		L55.6,366.8 L56.2,366.8 L56.2,366.9 L56.8,366.9 L56.8,367.0 L57.4,367.0 L57.4,367.1 L58.0,367.1
		L58.0,367.2 L58.5,367.2 L58.5,367.3 L59.1,367.3 L59.1,367.4 L59.7,367.4 L59.7,367.5 L60.3,367.5
		L60.3,367.6 L60.8,367.6 L61.4,367.6 L61.4,367.7 L62.0,367.7 L62.0,367.8 L62.6,367.8 L62.6,367.9
		L63.2,367.9 L63.2,368.0 L63.7,368.0 L63.7,368.1 L64.3,368.1 L64.3,368.2 L64.9,368.2 L64.9,368.3
		L65.5,368.3 L65.5,368.4 L66.1,368.4 L66.1,368.5 L66.6,368.5 L66.6,368.6 L67.2,368.6 L67.8,368.6
		L67.8,368.7 L68.4,368.7 L68.4,368.8 L69.0,368.8 L69.0,368.9 L69.5,368.9 L69.5,369.0 L70.1,369.0
		L70.1,369.1 L70.7,369.1 L70.7,369.2 L71.3,369.2 L71.3,369.3 L71.8,369.3 L71.8,369.4 L72.4,369.4
		L73.0,369.4 L73.0,369.5 L73.6,369.5 L73.6,369.6 L74.2,369.6 L74.2,369.7 L74.7,369.7 L74.7,369.8
		L75.3,369.8 L75.3,369.9 L75.9,369.9 L75.9,370.0 L76.5,370.0 L76.5,370.1 L77.1,370.1 L77.6,370.1
		L77.6,370.2 L78.2,370.2 L78.2,370.3 L78.8,370.3 L78.8,370.4 L79.4,370.4 L79.4,370.5 L80.0,370.5
		L80.0,370.6 L80.5,370.6 L80.5,370.7 L81.1,370.7 L81.7,370.7 L81.7,370.8 L82.3,370.8 L82.3,370.9
		L82.9,370.9 L82.9,371.0 L83.4,371.0 L83.4,371.1 L84.0,371.1 L84.0,371.2 L84.6,371.2 L84.6,371.3
		L85.2,371.3 L85.7,371.3 L85.7,371.4 L86.3,371.4 L86.3,371.5 L86.9,371.5 L86.9,371.6 L87.5,371.6
		L87.5,371.7 L88.1,371.7 L88.6,371.7 L88.6,371.8 L89.2,371.8 L89.2,371.9 L89.8,371.9 L89.8,372.0
		L90.4,372.0 L90.4,372.1 L91.0,372.1 L91.0,372.2 L91.5,372.2 L92.1,372.2 L92.1,372.3 L92.7,372.3
		L92.7,372.4 L93.3,372.4 L93.3,372.5 L93.9,372.5 L94.4,372.5 L94.4,372.6 L95.0,372.6 L95.0,372.7
		L95.6,372.7 L95.6,372.8 L96.2,372.8 L96.2,372.9 L96.7,372.9 L97.3,372.9 L97.3,373.0 L97.9,373.0
		L97.9,373.1 L98.5,373.1 L98.5,373.2 L99.1,373.2 L99.6,373.2 L99.6,373.3 L100.2,373.3 L100.2,373.4
		L100.8,373.4 L101.4,373.4 L101.4,373.5 L102.0,373.5 L102.0,373.6 L102.5,373.6 L102.5,373.7 L103.1,373.7
		L103.7,373.7 L103.7,373.8 L104.3,373.8 L104.3,373.9 L104.9,373.9 L105.4,373.9 L105.4,374.0 L106.0,374.0
		L106.0,374.1 L106.6,374.1 L106.6,374.2 L107.2,374.2 L107.7,374.2 L107.7,374.3 L108.3,374.3 L108.3,374.4
		L108.9,374.4 L109.5,374.4 L109.5,374.5 L110.1,374.5 L110.6,374.5 L110.6,374.6 L111.2,374.6 L111.2,374.7
		L111.8,374.7 L112.4,374.7 L112.4,374.8 L113.0,374.8 L113.0,374.9 L113.5,374.9 L114.1,374.9 L114.1,375.0
		L114.7,375.0 L115.3,375.0 L115.3,375.1 L115.9,375.1 L115.9,375.2 L116.4,375.2 L117.0,375.2 L117.0,375.3
		L117.6,375.3 L118.2,375.3 L118.2,375.4 L118.7,375.4 L118.7,375.5 L119.3,375.5 L119.9,375.5 L119.9,375.6
		L120.5,375.6 L121.1,375.6 L121.1,375.7 L121.6,375.7 L122.2,375.7 L122.2,375.8 L122.8,375.8 L123.4,375.8
		L123.4,375.9 L124.0,375.9 L124.5,375.9 L124.5,376.0 L125.1,376.0 L125.7,376.0 L125.7,376.1 L126.3,376.1
		L126.9,376.1 L126.9,376.2 L127.4,376.2 L128.0,376.2 L128.0,376.3 L128.6,376.3 L129.2,376.3 L129.7,376.3
		L129.7,376.4 L130.3,376.4 L130.9,376.4 L130.9,376.5 L131.5,376.5 L132.1,376.5 L132.1,376.6 L132.6,376.6
		L133.2,376.6 L133.8,376.6 L133.8,376.7 L134.4,376.7 L135.0,376.7 L135.5,376.7 L135.5,376.8 L136.1,376.8
		L136.7,376.8 L137.3,376.8 L137.3,376.9 L137.9,376.9 L138.4,376.9 L139.0,376.9 L139.0,377.0 L139.6,377.0
		L140.2,377.0 L140.8,377.0 L140.8,377.1 L141.3,377.1 L141.9,377.1 L142.5,377.1 L143.1,377.1 L143.1,377.2
		L143.6,377.2 L144.2,377.2 L144.8,377.2 L145.4,377.2 L146.0,377.2 L146.0,377.3 L146.5,377.3 L147.1,377.3
		L147.7,377.3 L148.3,377.3 L148.9,377.3 L148.9,377.4 L149.4,377.4 L150.0,377.4 L150.6,377.4 L151.2,377.4
		L151.8,377.4 L152.3,377.4 L152.9,377.4 L153.5,377.4 L154.1,377.4 L154.6,377.4 L154.6,377.5 L155.2,377.5
		L155.8,377.5 L156.4,377.5 L157.0,377.5 L157.5,377.5 L158.1,377.5 L158.7,377.5 L159.3,377.5 L159.9,377.5
		L160.4,377.5 L161.0,377.5 L161.0,377.4 L161.6,377.4 L162.2,377.4 L162.8,377.4 L163.3,377.4 L163.9,377.4
		L164.5,377.4 L165.1,377.4 L165.6,377.4 L166.2,377.4 L166.2,377.3 L166.8,377.3 L167.4,377.3 L168.0,377.3
		L168.5,377.3 L169.1,377.3 L169.7,377.3 L169.7,377.2 L170.3,377.2 L170.9,377.2 L171.4,377.2 L172.0,377.2
		L172.0,377.1 L172.6,377.1 L173.2,377.1 L173.8,377.1 L173.8,377.0 L174.3,377.0 L174.9,377.0 L175.5,377.0
		L176.1,377.0 L176.1,376.9 L176.6,376.9 L177.2,376.9 L177.2,376.8 L177.8,376.8 L178.4,376.8 L179.0,376.8
		L179.0,376.7 L179.5,376.7 L180.1,376.7 L180.1,376.6 L180.7,376.6 L181.3,376.6 L181.9,376.6 L181.9,376.5
		L182.4,376.5 L183.0,376.5 L183.0,376.4 L183.6,376.4 L184.2,376.4 L184.2,376.3 L184.8,376.3 L185.3,376.3
		L185.3,376.2 L185.9,376.2 L186.5,376.2 L186.5,376.1 L187.1,376.1 L187.1,376.0 L187.6,376.0 L188.2,376.0
		L188.2,375.9 L188.8,375.9 L189.4,375.9 L189.4,375.8 L190.0,375.8 L190.0,375.7 L190.5,375.7 L191.1,375.7
		L191.1,375.6 L191.7,375.6 L192.3,375.6 L192.3,375.5 L192.9,375.5 L192.9,375.4 L193.4,375.4 L193.4,375.3
		L194.0,375.3 L194.6,375.3 L194.6,375.2 L195.2,375.2 L195.2,375.1 L195.8,375.1 L196.3,375.1 L196.3,375.0
		L196.9,375.0 L196.9,374.9 L197.5,374.9 L197.5,374.8 L198.1,374.8 L198.7,374.8 L198.7,374.7 L199.2,374.7
		L199.2,374.6 L199.8,374.6 L199.8,374.5 L200.4,374.5 L200.4,374.4 L201.0,374.4 L201.0,374.3 L201.5,374.3
		L202.1,374.3 L202.1,374.2 L202.7,374.2 L202.7,374.1 L203.3,374.1 L203.3,374.0 L203.9,374.0 L203.9,373.9
		L204.4,373.9 L204.4,373.8 L205.0,373.8 L205.0,373.7 L205.6,373.7 L205.6,373.6 L206.2,373.6 L206.2,373.5
		L206.8,373.5 L206.8,373.4 L207.3,373.4 L207.3,373.3 L207.9,373.3 L207.9,373.2 L208.5,373.2 L208.5,373.1
		L209.1,373.1 L209.1,373.0 L209.7,373.0 L209.7,372.9 L210.2,372.9 L210.2,372.8 L210.8,372.8 L210.8,372.7
		L211.4,372.7 L211.4,372.6 L212.0,372.6 L212.0,372.5 L212.5,372.5 L212.5,372.4 L213.1,372.4 L213.1,372.3
		L213.7,372.3 L213.7,372.2 L214.3,372.2 L214.3,372.1 L214.9,372.1 L214.9,372.0 L215.4,372.0 L215.4,371.9
		L216.0,371.9 L216.0,371.8 L216.6,371.8 L216.6,371.6 L217.2,371.6 L217.2,371.5 L217.8,371.5 L217.8,371.4
		L218.3,371.4 L218.3,371.3 L218.9,371.3 L218.9,371.2 L219.5,371.2 L219.5,371.0 L220.1,371.0 L220.1,370.9
		L220.7,370.9 L220.7,370.8 L221.2,370.8 L221.2,370.7 L221.8,370.7 L221.8,370.5 L222.4,370.5 L222.4,370.4
		L223.0,370.4 L223.0,370.3 L223.5,370.3 L223.5,370.2 L224.1,370.2 L224.1,370.0 L224.7,370.0 L224.7,369.9
		L225.3,369.9 L225.3,369.8 L225.9,369.8 L225.9,369.6 L226.4,369.6 L226.4,369.5 L227.0,369.5 L227.0,369.4
		L227.6,369.4 L227.6,369.2 L228.2,369.2 L228.2,369.1 L228.8,369.1 L228.8,368.9 L229.3,368.9 L229.3,368.8
		L229.9,368.8 L229.9,368.7 L230.5,368.7 L230.5,368.5 L231.1,368.5 L231.1,368.4 L231.7,368.4 L231.7,368.2
		L232.2,368.2 L232.2,368.1 L232.8,368.1 L232.8,367.9 L233.4,367.9 L233.4,367.8 L234.0,367.8 L234.0,367.6
		L234.5,367.6 L234.5,367.5 L235.1,367.5 L235.1,367.3 L235.7,367.3 L235.7,367.2 L236.3,367.2 L236.3,367.0
		L236.9,367.0 L236.9,366.9 L237.4,366.9 L237.4,366.7 L238.0,366.7 L238.0,366.6 L238.6,366.6 L238.6,366.4
		L239.2,366.4 L239.2,366.2 L239.8,366.2 L239.8,366.1 L240.3,366.1 L240.3,365.9 L240.9,365.9 L240.9,365.7
		L241.5,365.7 L241.5,365.6 L242.1,365.6 L242.1,365.4 L242.7,365.4 L242.7,365.3 L243.2,365.3 L243.2,365.1
		L243.8,365.1 L243.8,364.9 L244.4,364.9 L244.4,364.8 L245.0,364.8 L245.0,364.6 L245.5,364.6 L245.5,364.4
		L246.1,364.4 L246.1,364.2 L246.7,364.2 L246.7,364.1 L247.3,364.1 L247.3,363.9 L247.9,363.9 L247.9,363.7
		L248.4,363.7 L248.4,363.6 L249.0,363.6 L249.0,363.4 L249.6,363.4 L249.6,363.2 L250.2,363.2 L250.2,363.0
		L250.8,363.0 L250.8,362.9 L251.3,362.9 L251.3,362.7 L251.9,362.7 L251.9,362.5 L252.5,362.5 L252.5,362.3
		L253.1,362.3 L253.1,362.1 L253.7,362.1 L253.7,362.0 L254.2,362.0 L254.2,361.8 L254.8,361.8 L254.8,361.6
		L255.4,361.6 L255.4,361.4 L256.0,361.4 L256.0,361.2 L256.6,361.2 L256.6,361.0 L257.1,361.0 L257.1,360.9
		L257.7,360.9 L257.7,360.7 L258.3,360.7 L258.3,360.5 L258.9,360.5 L258.9,360.3 L259.4,360.3 L259.4,360.1
		L260.0,360.1 L260.0,359.9 L260.6,359.9 L260.6,359.7 L261.2,359.7 L261.2,359.6 L261.8,359.6 L261.8,359.4
		L262.3,359.4 L262.3,359.2 L262.9,359.2 L262.9,359.0 L263.5,359.0 L263.5,358.8 L264.1,358.8 L264.1,358.6
		L264.7,358.6 L264.7,358.4 L265.2,358.4 L265.2,358.2 L265.8,358.2 L265.8,358.0 L266.4,358.0 L266.4,357.8
		L267.0,357.8 L267.0,357.6 L267.6,357.6 L267.6,357.4 L268.1,357.4 L268.1,357.2 L268.7,357.2 L268.7,357.1
		L269.3,357.1 L269.3,356.9 L269.9,356.9 L269.9,356.7 L270.4,356.7 L270.4,356.5 L271.0,356.5 L271.0,356.3
		L271.6,356.3 L271.6,356.1 L272.2,356.1 L272.2,355.9 L272.8,355.9 L272.8,355.7 L273.3,355.7 L273.3,355.5
		L273.9,355.5 L273.9,355.3 L274.5,355.3 L274.5,355.1 L275.1,355.1 L275.1,354.9 L275.7,354.9 L275.7,354.7
		L276.2,354.7 L276.2,354.5 L276.8,354.5 L276.8,354.3 L277.4,354.3 L277.4,354.1 L278.0,354.1 L278.0,353.9
		L278.6,353.9 L278.6,353.7 L279.1,353.7 L279.1,353.5 L279.7,353.5 L279.7,353.3 L280.3,353.3 L280.3,353.1
		L280.9,353.1 L280.9,352.9 L281.4,352.9 L281.4,352.7 L282.0,352.7 L282.0,352.5 L282.6,352.5 L282.6,352.3
		L283.2,352.3 L283.2,352.1 L283.8,352.1 L283.8,351.9 L284.3,351.9 L284.3,351.7 L284.9,351.7 L284.9,351.4
		L285.5,351.4 L285.5,351.2 L286.1,351.2 L286.1,351.0 L286.7,351.0 L286.7,350.8 L287.2,350.8 L287.2,350.6
		L287.8,350.6 L287.8,350.4 L288.4,350.4 L288.4,350.2 L289.0,350.2 L289.0,350.0 L289.6,350.0 L289.6,349.8
		L290.1,349.8 L290.1,349.6 L290.7,349.6 L290.7,349.4 L291.3,349.4 L291.3,349.2 L291.9,349.2 L291.9,349.0
		L292.4,349.0 L292.4,348.8 L293.0,348.8 L293.0,348.6 L293.6,348.6 L293.6,348.4 L294.2,348.4 L294.2,348.2
		L294.8,348.2 L294.8,348.0 L295.3,348.0 L295.3,347.8 L295.9,347.8 L295.9,347.6 L296.5,347.6 L296.5,347.4
		L297.1,347.4 L297.1,347.2 L297.7,347.2 L297.7,347.0 L298.2,347.0 L298.2,346.8 L298.8,346.8 L298.8,346.5
		L299.4,346.5 L299.4,346.3 L300.0,346.3 L300.0,346.1 L300.6,346.1 L300.6,345.9 L301.1,345.9 L301.1,345.7
		L301.7,345.7 L301.7,345.5 L302.3,345.5 L302.3,345.3 L302.9,345.3 L302.9,345.1 L303.4,345.1 L303.4,344.9
		L304.0,344.9 L304.0,344.7 L304.6,344.7 L304.6,344.5 L305.2,344.5 L305.2,344.3 L305.8,344.3 L305.8,344.1
		L306.3,344.1 L306.3,343.9 L306.9,343.9 L306.9,343.7 L307.5,343.7 L307.5,343.5 L308.1,343.5 L308.1,343.3
		L308.7,343.3 L308.7,343.1 L309.2,343.1 L309.2,342.9 L309.8,342.9 L309.8,342.7 L310.4,342.7 L310.4,342.5
		L311.0,342.5 L311.0,342.3 L311.6,342.3 L311.6,342.1 L312.1,342.1 L312.1,341.9 L312.7,341.9 L312.7,341.7
		L313.3,341.7 L313.3,341.5 L313.9,341.5 L313.9,341.3 L314.5,341.3 L314.5,341.1 L315.0,341.1 L315.0,340.9
		L315.6,340.9 L315.6,340.7 L316.2,340.7 L316.2,340.5 L316.8,340.5 L316.8,340.3 L317.3,340.3 L317.3,340.1
		L317.9,340.1 L317.9,340.0 L318.5,340.0 L318.5,339.8 L319.1,339.8 L319.1,339.6 L319.7,339.6 L319.7,339.4
		L320.2,339.4 L320.2,339.2 L320.8,339.2 L320.8,339.0 L321.4,339.0 L321.4,338.8 L322.0,338.8 L322.0,338.6
		L322.6,338.6 L322.6,338.4 L323.1,338.4 L323.1,338.2 L323.7,338.2 L323.7,338.0 L324.3,338.0 L324.3,337.8
		L324.9,337.8 L324.9,337.7 L325.5,337.7 L325.5,337.5 L326.0,337.5 L326.0,337.3 L326.6,337.3 L326.6,337.1
		L327.2,337.1 L327.2,336.9 L327.8,336.9 L327.8,336.7 L328.3,336.7 L328.3,336.5 L328.9,336.5 L328.9,336.4
		L329.5,336.4 L329.5,336.2 L330.1,336.2 L330.1,336.0 L330.7,336.0 L330.7,335.8 L331.2,335.8 L331.2,335.6
		L331.8,335.6 L331.8,335.4 L332.4,335.4 L332.4,335.3 L333.0,335.3 L333.0,335.1 L333.6,335.1 L333.6,334.9
		L334.1,334.9 L334.1,334.7 L334.7,334.7 L334.7,334.6 L335.3,334.6 L335.3,334.4 L335.9,334.4 L335.9,334.2
		L336.5,334.2 L336.5,334.0 L337.0,334.0 L337.0,333.9 L337.6,333.9 L337.6,333.7 L338.2,333.7 L338.2,333.5
		L338.8,333.5 L338.8,333.3 L339.3,333.3 L339.3,333.2 L339.9,333.2 L339.9,333.0 L340.5,333.0 L340.5,332.8
		L341.1,332.8 L341.1,332.7 L341.7,332.7 L341.7,332.5 L342.2,332.5 L342.2,332.3 L342.8,332.3 L342.8,332.2
		L343.4,332.2 L343.4,332.0 L344.0,332.0 L344.0,331.8 L344.6,331.8 L344.6,331.7 L345.1,331.7 L345.1,331.5
		L345.7,331.5 L345.7,331.4 L346.3,331.4 L346.3,331.2 L346.9,331.2 L346.9,331.0 L347.5,331.0 L347.5,330.9
		L348.0,330.9 L348.0,330.7 L348.6,330.7 L348.6,330.6 L349.2,330.6 L349.2,330.4 L349.8,330.4 L349.8,330.3
		L350.3,330.3 L350.3,330.1 L350.9,330.1 L350.9,330.0 L351.5,330.0 L351.5,329.8 L352.1,329.8 L352.1,329.7
		L352.7,329.7 L352.7,329.5 L353.2,329.5 L353.2,329.4 L353.8,329.4 L353.8,329.2 L354.4,329.2 L354.4,329.1
		L355.0,329.1 L355.0,328.9 L355.6,328.9 L355.6,328.8 L356.1,328.8 L356.1,328.6 L356.7,328.6 L356.7,328.5
		L357.3,328.5 L357.3,328.4 L357.9,328.4 L357.9,328.2 L358.5,328.2 L358.5,328.1 L359.0,328.1 L359.0,328.0
		L359.6,328.0 L359.6,327.8 L360.2,327.8 L360.2,327.7 L360.8,327.7 L360.8,327.6 L361.3,327.6 L361.3,327.4
		L361.9,327.4 L361.9,327.3 L362.5,327.3 L362.5,327.2 L363.1,327.2 L363.1,327.0 L363.7,327.0 L363.7,326.9
		L364.2,326.9 L364.2,326.8 L364.8,326.8 L364.8,326.7 L365.4,326.7 L365.4,326.6 L366.0,326.6 L366.0,326.4
		L366.6,326.4 L366.6,326.3 L367.1,326.3 L367.1,326.2 L367.7,326.2 L367.7,326.1 L368.3,326.1 L368.3,326.0
		L368.9,326.0 L368.9,325.9 L369.5,325.9 L369.5,325.7 L370.0,325.7 L370.0,325.6 L370.6,325.6 L370.6,325.5
		L371.2,325.5 L371.2,325.4 L371.8,325.4 L371.8,325.3 L372.4,325.3 L372.4,325.2 L372.9,325.2 L372.9,325.1
		L373.5,325.1 L373.5,325.0 L374.1,325.0 L374.1,324.9 L374.7,324.9 L374.7,324.8 L375.2,324.8 L375.2,324.7
		L375.8,324.7 L375.8,324.6 L376.4,324.6 L376.4,324.5 L377.0,324.5 L377.0,324.4 L377.6,324.4 L377.6,324.3
		L378.1,324.3 L378.1,324.2 L378.7,324.2 L378.7,324.1 L379.3,324.1 L379.9,324.1 L379.9,324.0 L380.5,324.0
		L380.5,323.9 L381.0,323.9 L381.0,323.8 L381.6,323.8 L381.6,323.7 L382.2,323.7 L382.2,323.6 L382.8,323.6
		L383.4,323.6 L383.4,323.5 L383.9,323.5 L383.9,323.4 L384.5,323.4 L384.5,323.3 L385.1,323.3 L385.7,323.3
		L385.7,323.2 L386.2,323.2 L386.2,323.1 L386.8,323.1 L387.4,323.1 L387.4,323.0 L388.0,323.0 L388.6,323.0
		L388.6,322.9 L389.1,322.9 L389.1,322.8 L389.7,322.8 L390.3,322.8 L390.3,322.7 L390.9,322.7 L391.5,322.7
		L391.5,322.6 L392.0,322.6 L392.6,322.6 L392.6,322.5 L393.2,322.5 L393.8,322.5 L393.8,322.4 L394.4,322.4
		L394.9,322.4 L394.9,322.3 L395.5,322.3 L396.1,322.3 L396.7,322.3 L396.7,322.2 L397.2,322.2 L397.8,322.2
		L398.4,322.2 L398.4,322.1 L399.0,322.1 L399.6,322.1 L400.1,322.1 L400.7,322.1 L400.7,322.0 L401.3,322.0
		L401.9,322.0 L402.5,322.0 L403.0,322.0 L403.6,322.0 L404.2,322.0 L404.8,322.0 L405.4,322.0 L405.4,321.9
		L405.9,321.9 L406.5,321.9 L407.1,321.9 L407.7,321.9 L408.2,321.9 L408.2,322.0 L408.8,322.0 L409.4,322.0
		L410.0,322.0 L410.6,322.0 L411.1,322.0 L411.7,322.0 L412.3,322.0 L412.9,322.0 L412.9,322.1 L413.5,322.1
		L414.0,322.1 L414.6,322.1 L415.2,322.1 L415.2,322.2 L415.8,322.2 L416.4,322.2 L416.9,322.2 L416.9,322.3
		L417.5,322.3 L418.1,322.3 L418.1,322.4 L418.7,322.4 L419.2,322.4 L419.2,322.5 L419.8,322.5 L420.4,322.5
		L420.4,322.6 L421.0,322.6 L421.6,322.6 L421.6,322.7 L422.1,322.7 L422.7,322.7 L422.7,322.8 L423.3,322.8
		L423.3,322.9 L423.9,322.9 L424.5,322.9 L424.5,323.0 L425.0,323.0 L425.0,323.1 L425.6,323.1 L426.2,323.1
		L426.2,323.2 L426.8,323.2 L426.8,323.3 L427.4,323.3 L427.4,323.4 L427.9,323.4 L428.5,323.4 L428.5,323.5
		L429.1,323.5 L429.1,323.6 L429.7,323.6 L429.7,323.7 L430.3,323.7 L430.3,323.8 L430.8,323.8 L430.8,323.9
		L431.4,323.9 L431.4,324.0 L432.0,324.0 L432.0,324.1 L432.6,324.1 L432.6,324.2 L433.1,324.2 L433.1,324.3
		L433.7,324.3 L433.7,324.4 L434.3,324.4 L434.3,324.5 L434.9,324.5 L434.9,324.6 L435.5,324.6 L435.5,324.7
		L436.0,324.7 L436.0,324.9 L436.6,324.9 L436.6,325.0 L437.2,325.0 L437.2,325.1 L437.8,325.1 L437.8,325.2
		L438.4,325.2 L438.4,325.4 L438.9,325.4 L438.9,325.5 L439.5,325.5 L439.5,325.6 L440.1,325.6 L440.1,325.8
		L440.7,325.8 L440.7,325.9 L441.3,325.9 L441.3,326.0 L441.8,326.0 L441.8,326.2 L442.4,326.2 L442.4,326.3
		L443.0,326.3 L443.0,326.5 L443.6,326.5 L443.6,326.6 L444.1,326.6 L444.1,326.8 L444.7,326.8 L444.7,327.0
		L445.3,327.0 L445.3,327.1 L445.9,327.1 L445.9,327.3 L446.5,327.3 L446.5,327.4 L447.0,327.4 L447.0,327.6
		L447.6,327.6 L447.6,327.8 L448.2,327.8 L448.2,328.0 L448.8,328.0 L448.8,328.1 L449.4,328.1 L449.4,328.3
		L449.9,328.3 L449.9,328.5 L450.5,328.5 L450.5,328.7 L451.1,328.7 L451.1,328.9 L451.7,328.9 L451.7,329.1
		L452.3,329.1 L452.3,329.3 L452.8,329.3 L452.8,329.5 L453.4,329.5 L453.4,329.7 L454.0,329.7 L454.0,329.9
		L454.6,329.9 L454.6,330.1 L455.1,330.1 L455.1,330.3 L455.7,330.3 L455.7,330.5 L456.3,330.5 L456.3,330.7
		L456.9,330.7 L456.9,330.9 L457.5,330.9 L457.5,331.2 L458.0,331.2 L458.0,331.4 L458.6,331.4 L458.6,331.6
		L459.2,331.6 L459.2,331.8 L459.8,331.8 L459.8,332.1 L460.4,332.1 L460.4,332.3 L460.9,332.3 L460.9,332.5
		L461.5,332.5 L461.5,332.8 L462.1,332.8 L462.1,333.0 L462.7,333.0 L462.7,333.3 L463.3,333.3 L463.3,333.5
		L463.8,333.5 L463.8,333.8 L464.4,333.8 L464.4,334.0 L465.0,334.0 L465.0,334.3 L465.6,334.3 L465.6,334.6
		L466.1,334.6 L466.1,334.8 L466.7,334.8 L466.7,335.1 L467.3,335.1 L467.3,335.3 L467.9,335.3 L467.9,335.6
		L468.5,335.6 L468.5,335.9 L469.0,335.9 L469.0,336.2 L469.6,336.2 L469.6,336.4 L470.2,336.4 L470.2,336.7
		L470.8,336.7 L470.8,337.0 L471.4,337.0 L471.4,337.3 L471.9,337.3 L471.9,337.5 L472.5,337.5 L472.5,337.8
		L473.1,337.8 L473.1,338.1 L473.7,338.1 L473.7,338.4 L474.3,338.4 L474.3,338.7 L474.8,338.7 L474.8,339.0
		L475.4,339.0 L475.4,339.3 L476.0,339.3 L476.0,339.6 L476.6,339.6 L476.6,339.8 L477.1,339.8 L477.1,340.1
		L477.7,340.1 L477.7,340.4 L478.3,340.4 L478.3,340.7 L478.9,340.7 L478.9,341.0 L479.5,341.0 L479.5,341.3
		L480.0,341.3 L480.0,341.6 L480.6,341.6 L480.6,341.9 L481.2,341.9 L481.2,342.2 L481.8,342.2 L481.8,342.5
		L482.4,342.5 L482.4,342.8 L482.9,342.8 L482.9,343.1 L483.5,343.1 L483.5,343.4 L484.1,343.4 L484.1,343.7
		L484.7,343.7 L484.7,344.0 L485.3,344.0 L485.3,344.3 L485.8,344.3 L485.8,344.6 L486.4,344.6 L486.4,344.9
		L487.0,344.9 L487.0,345.2 L487.6,345.2 L487.6,345.5 L488.2,345.5 L488.2,345.8 L488.7,345.8 L488.7,346.1
		L489.3,346.1 L489.3,346.4 L489.9,346.4 L489.9,346.7 L490.5,346.7 L490.5,346.9 L491.0,346.9 L491.0,347.2
		L491.6,347.2 L491.6,347.5 L492.2,347.5 L492.2,347.8 L492.8,347.8 L492.8,348.1 L493.4,348.1 L493.4,348.4
		L493.9,348.4 L493.9,348.7 L494.5,348.7 L494.5,349.0 L495.1,349.0 L495.1,349.3 L495.7,349.3 L495.7,349.6
		L496.3,349.6 L496.3,349.8 L496.8,349.8 L496.8,350.1 L497.4,350.1 L497.4,350.4 L498.0,350.4 L498.0,350.7
		L498.6,350.7 L498.6,351.0 L499.2,351.0 L499.2,351.2 L499.7,351.2 L499.7,351.5 L500.3,351.5 L500.3,351.8
		L500.9,351.8 L500.9,352.0 L501.5,352.0 L501.5,352.3 L502.0,352.3 L502.0,352.6 L502.6,352.6 L502.6,352.8
		L503.2,352.8 L503.2,353.1 L503.8,353.1 L503.8,353.4 L504.4,353.4 L504.4,353.6 L504.9,353.6 L504.9,353.9
		L505.5,353.9 L505.5,354.1 L506.1,354.1 L506.1,354.4 L506.7,354.4 L506.7,354.6 L507.3,354.6 L507.3,354.9
		L507.8,354.9 L507.8,355.1 L508.4,355.1 L508.4,355.4 L509.0,355.4 L509.0,355.6 L509.6,355.6 L509.6,355.8
		L510.2,355.8 L510.2,356.0 L510.7,356.0 L510.7,356.3 L511.3,356.3 L511.3,356.5 L511.9,356.5 L511.9,356.7
		L512.5,356.7 L512.5,356.9 L513.0,356.9 L513.0,357.1 L513.6,357.1 L513.6,357.4 L514.2,357.4 L514.2,357.6
		L514.8,357.6 L514.8,357.8 L515.4,357.8 L515.4,358.0 L515.9,358.0 L515.9,358.2 L516.5,358.2 L516.5,358.4
		L517.1,358.4 L517.1,358.5 L517.7,358.5 L517.7,358.7 L518.3,358.7 L518.3,358.9 L518.8,358.9 L518.8,359.1
		L519.4,359.1 L519.4,359.3 L520.0,359.3 L520.0,359.4 L520.6,359.4 L520.6,359.6 L521.2,359.6 L521.2,359.7
		L521.7,359.7 L521.7,359.9 L522.3,359.9 L522.3,360.1 L522.9,360.1 L522.9,360.2 L523.5,360.2 L523.5,360.3
		L524.0,360.3 L524.0,360.5 L524.6,360.5 L524.6,360.6 L525.2,360.6 L525.2,360.8 L525.8,360.8 L525.8,360.9
		L526.4,360.9 L526.4,361.0 L526.9,361.0 L526.9,361.2 L527.5,361.2 L527.5,361.3 L528.1,361.3 L528.1,361.4
		L528.7,361.4 L528.7,361.5 L529.3,361.5 L529.3,361.6 L529.8,361.6 L529.8,361.7 L530.4,361.7 L530.4,361.8
		L531.0,361.8 L531.0,361.9 L531.6,361.9 L531.6,362.0 L532.2,362.0 L532.2,362.1 L532.7,362.1 L532.7,362.2
		L533.3,362.2 L533.3,362.3 L533.9,362.3 L533.9,362.4 L534.5,362.4 L534.5,362.5 L535.0,362.5 L535.0,362.6
		L535.6,362.6 L535.6,362.7 L536.2,362.7 L536.8,362.7 L536.8,362.8 L537.4,362.8 L537.4,362.9 L537.9,362.9
		L537.9,363.0 L538.5,363.0 L539.1,363.0 L539.1,363.1 L539.7,363.1 L539.7,363.2 L540.3,363.2 L540.8,363.2
		L540.8,363.3 L541.4,363.3 L542.0,363.3 L542.0,363.4 L542.6,363.4 L543.2,363.4 L543.2,363.5 L543.7,363.5
		L544.3,363.5 L544.3,363.6 L544.9,363.6 L545.5,363.6 L546.1,363.6 L546.1,363.7 L546.6,363.7 L547.2,363.7
		L547.2,363.8 L547.8,363.8 L548.4,363.8 L548.9,363.8 L549.5,363.8 L549.5,363.9 L550.1,363.9 L550.7,363.9
		L551.3,363.9 L551.8,363.9 L551.8,364.0 L552.4,364.0 L553.0,364.0 L553.6,364.0 L554.2,364.0 L554.7,364.0
		L555.3,364.0 L555.3,364.1 L555.9,364.1 L556.5,364.1 L557.1,364.1 L557.6,364.1 L558.2,364.1 L558.8,364.1
		L559.4,364.1 L559.9,364.1 L560.5,364.1 L561.1,364.1 L561.7,364.1 L562.3,364.1 L562.8,364.1 L563.4,364.1
		L564.0,364.1 L564.6,364.1 L565.2,364.1 L565.7,364.1 L566.3,364.1 L566.3,364.0 L566.9,364.0 L567.5,364.0
		L568.1,364.0 L568.6,364.0 L569.2,364.0 L569.8,364.0 L570.4,364.0 L570.9,364.0 L571.5,364.0 L572.1,364.0
		L572.1,363.9 L572.7,363.9 L573.3,363.9 L573.8,363.9 L574.4,363.9 L575.0,363.9  '/></g>
	</g>
	<g id="gnuplot_plot_3" ><title>Integral Int.</title>
<g fill="none" color="black" stroke="currentColor" stroke-width="1.00" stroke-linecap="butt" stroke-linejoin="miter">
	<g transform="translate(507.9,74.6)" stroke="none" fill="black" font-family="Arial" font-size="12.00"  text-anchor="end">
		<text><tspan font-family="Arial" >Integral Int.</tspan></text>
	</g>
</g>
<g fill="none" color="black" stroke="currentColor" stroke-width="1.00" stroke-linecap="butt" stroke-linejoin="miter">
	<path stroke='rgb( 86, 180, 233)'  d='M516.2,70.7 L558.4,70.7 M53.9,390.6 L59.7,388.2 L65.5,386.0 L71.3,383.8 L77.1,381.7 L82.9,379.7
		L88.6,377.8 L94.4,375.9 L100.2,374.2 L106.0,372.5 L111.8,370.9 L117.6,369.3 L123.4,367.8 L129.2,366.4
		L135.0,365.0 L140.8,363.6 L146.5,362.3 L152.3,361.0 L158.1,359.7 L163.9,358.3 L169.7,357.0 L175.5,355.7
		L181.3,354.3 L187.1,352.9 L192.9,351.4 L198.7,349.8 L204.4,348.2 L210.2,346.5 L216.0,344.6 L221.8,342.7
		L227.6,340.6 L233.4,338.4 L239.2,336.0 L245.0,333.5 L250.8,330.9 L256.6,328.0 L262.3,325.0 L268.1,321.7
		L273.9,318.3 L279.7,314.7 L285.5,310.9 L291.3,306.9 L297.1,302.7 L302.9,298.3 L308.7,293.7 L314.5,288.9
		L320.2,283.9 L326.0,278.7 L331.8,273.3 L337.6,267.8 L343.4,262.1 L349.2,256.2 L355.0,250.1 L360.8,244.0
		L366.6,237.7 L372.4,231.3 L378.1,224.7 L383.9,218.1 L389.7,211.4 L395.5,204.7 L401.3,197.9 L407.1,191.1
		L412.9,184.3 L418.7,177.5 L424.5,170.8 L430.3,164.1 L436.0,157.5 L441.8,151.0 L447.6,144.7 L453.4,138.5
		L459.2,132.5 L465.0,126.8 L470.8,121.3 L476.6,116.0 L482.4,111.1 L488.2,106.4 L493.9,102.0 L499.7,97.9
		L505.5,94.1 L511.3,90.5 L517.1,87.2 L522.9,84.1 L528.7,81.2 L534.5,78.4 L540.3,75.8 L546.1,73.2
		L551.8,70.7 L557.6,68.2 L563.4,65.7 L569.2,63.1 L575.0,60.5  '/></g>
	</g>
	<g id="gnuplot_plot_4" ><title>Derivatie Int.</title>
<g fill="none" color="black" stroke="currentColor" stroke-width="1.00" stroke-linecap="butt" stroke-linejoin="miter">
	<g transform="translate(507.9,92.6)" stroke="none" fill="black" font-family="Arial" font-size="12.00"  text-anchor="end">
		<text><tspan font-family="Arial" >Derivatie Int.</tspan></text>
	</g>
</g>
<g fill="none" color="black" stroke="currentColor" stroke-width="1.00" stroke-linecap="butt" stroke-linejoin="miter">
	<path stroke='rgb(230, 159,   0)'  d='M516.2,88.7 L558.4,88.7 M53.9,399.7 L59.7,399.7 L65.5,399.6 L71.3,399.5 L77.1,399.3 L82.9,399.0
		L88.6,398.7 L94.4,398.3 L100.2,397.9 L106.0,397.4 L111.8,396.9 L117.6,396.3 L123.4,395.6 L129.2,394.9
		L135.0,394.1 L140.8,393.3 L146.5,392.4 L152.3,391.5 L158.1,390.5 L163.9,389.4 L169.7,388.3 L175.5,387.1
		L181.3,386.0 L187.1,384.9 L192.9,383.7 L198.7,382.6 L204.4,381.4 L210.2,380.3 L216.0,379.1 L221.8,378.0
		L227.6,376.9 L233.4,375.8 L239.2,374.8 L245.0,373.9 L250.8,373.1 L256.6,372.5 L262.3,371.9 L268.1,371.4
		L273.9,371.0 L279.7,370.7 L285.5,370.6 L291.3,370.5 L297.1,370.5 L302.9,370.7 L308.7,370.9 L314.5,371.2
		L320.2,371.7 L326.0,372.2 L331.8,372.9 L337.6,373.6 L343.4,374.5 L349.2,375.4 L355.0,376.5 L360.8,377.6
		L366.6,378.9 L372.4,380.2 L378.1,381.7 L383.9,383.2 L389.7,384.9 L395.5,386.6 L401.3,388.5 L407.1,390.5
		L412.9,392.5 L418.7,394.7 L424.5,397.0 L430.3,399.4 L436.0,401.8 L441.8,404.4 L447.6,407.1 L453.4,409.9
		L459.2,412.7 L465.0,415.4 L470.8,417.4 L476.6,418.8 L482.4,419.6 L488.2,419.8 L493.9,419.4 L499.7,418.4
		L505.5,416.8 L511.3,414.6 L517.1,411.7 L522.9,408.6 L528.7,405.4 L534.5,402.3 L540.3,399.1 L546.1,396.0
		L551.8,392.8 L557.6,389.6 L563.4,386.4 L569.2,383.2 L575.0,380.0  '/></g>
	</g>
	<g id="gnuplot_plot_5" ><title>Input Data</title>
<g fill="none" color="black" stroke="currentColor" stroke-width="1.00" stroke-linecap="butt" stroke-linejoin="miter">
	<g transform="translate(507.9,110.6)" stroke="none" fill="black" font-family="Arial" font-size="12.00"  text-anchor="end">
		<text><tspan font-family="Arial" >Input Data</tspan></text>
	</g>
</g>
<g fill="none" color="black" stroke="currentColor" stroke-width="1.00" stroke-linecap="butt" stroke-linejoin="miter">
	<use xlink:href='#gpPt4' transform='translate(53.9,366.6) scale(4.50)' color='rgb(240, 228,  66)'/>
	<use xlink:href='#gpPt4' transform='translate(169.7,377.2) scale(4.50)' color='rgb(240, 228,  66)'/>
	<use xlink:href='#gpPt4' transform='translate(227.6,369.2) scale(4.50)' color='rgb(240, 228,  66)'/>
	<use xlink:href='#gpPt4' transform='translate(459.2,331.8) scale(4.50)' color='rgb(240, 228,  66)'/>
	<use xlink:href='#gpPt4' transform='translate(517.1,358.5) scale(4.50)' color='rgb(240, 228,  66)'/>
	<use xlink:href='#gpPt4' transform='translate(575.0,363.9) scale(4.50)' color='rgb(240, 228,  66)'/>
	<use xlink:href='#gpPt4' transform='translate(537.3,106.7) scale(4.50)' color='rgb(240, 228,  66)'/>
</g>
	</g>
<g fill="none" color="white" stroke="rgb(240, 228,  66)" stroke-width="2.00" stroke-linecap="butt" stroke-linejoin="miter">
</g>
<g fill="none" color="black" stroke="currentColor" stroke-width="2.00" stroke-linecap="butt" stroke-linejoin="miter">
</g>
<g fill="none" color="black" stroke="black" stroke-width="1.00" stroke-linecap="butt" stroke-linejoin="miter">
</g>
<g fill="none" color="black" stroke="currentColor" stroke-width="1.00" stroke-linecap="butt" stroke-linejoin="miter">
	<path stroke='black'  d='M53.9,16.7 L53.9,444.0 L575.0,444.0 L575.0,16.7 L53.9,16.7 Z  '/></g>
<g fill="none" color="black" stroke="currentColor" stroke-width="1.00" stroke-linecap="butt" stroke-linejoin="miter">
</g>
</g>
</svg>

