\relax 
\bibdata{reportNotes}
\bibstyle{apsrev4-1}
\citation{REVTEX41Control}
\citation{apsrev41Control}
\newlabel{FirstPage}{{}{1}{}{}{}}
\@writefile{toc}{\contentsline {title}{The Error Function}{1}{}}
\@writefile{toc}{\contentsline {abstract}{Abstract}{1}{}}
\@writefile{toc}{\contentsline {section}{\numberline {I}Introduction}{1}{}}
\newlabel{eq:err}{{1}{1}{}{}{}}
\@writefile{toc}{\contentsline {section}{\numberline {II}Properties}{1}{}}
\newlabel{eq:odd}{{2}{1}{}{}{}}
\newlabel{eq:conj}{{3}{1}{}{}{}}
\@writefile{toc}{\contentsline {section}{\numberline {III}Applications}{1}{}}
\@writefile{toc}{\contentsline {section}{\numberline {IV}Plotting in C}{1}{}}
\newlabel{eq:integrand}{{4}{1}{}{}{}}
\@writefile{lof}{\contentsline {figure}{\numberline {1}{\ignorespaces Plot of error function between -4 and 4 with interval 0.1. Calculated using GSL integration functions.}}{1}{}}
\newlabel{fig:plot}{{1}{1}{}{}{}}
\newlabel{LastPage}{{}{1}{}{}{}}
